tests/cpu_project.vcd
$date
	Mon Jun 18 09:57:18 2018
$end
$version
	Icarus Verilog
$end
$timescale
	1ps
$end
$scope module project_test $end
$var wire 4 ! dig [3:0] $end
$var wire 4 " led [3:0] $end
$var wire 1 # reset $end
$var wire 1 $ rx $end
$var wire 8 % seg [7:0] $end
$var wire 1 & tx $end
$var reg 4 ' bt [3:0] $end
$var reg 1 ( clk $end
$var integer 32 ) i [31:0] $end
$scope module project1 $end
$var wire 1 * baud $end
$var wire 1 + baud_tx $end
$var wire 4 , bt [3:0] $end
$var wire 1 - clk $end
$var wire 16 . cpu_to_memory [15:0] $end
$var wire 4 / dig [3:0] $end
$var wire 4 0 in [3:0] $end
$var wire 16 1 in1 [15:0] $end
$var wire 4 2 led [3:0] $end
$var wire 16 3 memory_addr [15:0] $end
$var wire 16 4 memory_to_cpu [15:0] $end
$var wire 16 5 memory_write [15:0] $end
$var wire 16 6 out1 [15:0] $end
$var wire 16 7 out2 [15:0] $end
$var wire 8 8 received_data [7:0] $end
$var wire 1 9 reset $end
$var wire 1 # reset_bt $end
$var wire 1 $ rx $end
$var wire 8 : seg [7:0] $end
$var wire 17 ; slow_clk [16:0] $end
$var wire 1 & tx $end
$var wire 1 < uart_new_data $end
$scope module cpu $end
$var wire 2 = ALU_in2_mux [1:0] $end
$var wire 1 > ALU_out_write $end
$var wire 1 ? IR_write $end
$var wire 2 @ PC_mux [1:0] $end
$var wire 1 A PC_write $end
$var wire 1 - clk $end
$var wire 2 B data_in_mux [1:0] $end
$var wire 1 C mem_out_mux $end
$var wire 16 D memory_addr [15:0] $end
$var wire 2 E memory_addr_mux [1:0] $end
$var wire 16 F memory_in [15:0] $end
$var wire 16 G memory_out [15:0] $end
$var wire 1 H memory_write $end
$var wire 5 I opcode [4:0] $end
$var wire 1 J reg_buff1_write $end
$var wire 1 K reg_buff2_write $end
$var wire 1 L reg_write $end
$var wire 1 9 reset $end
$var wire 16 M status_reg [15:0] $end
$var wire 1 N status_reg_write $end
$scope module control_unit $end
$var wire 1 - clk $end
$var wire 5 O opcode [4:0] $end
$var wire 1 9 reset $end
$var wire 16 P status_reg [15:0] $end
$var reg 2 Q ALU_in2_mux [1:0] $end
$var reg 1 R ALU_out_write $end
$var reg 1 S IR_write $end
$var reg 2 T PC_mux [1:0] $end
$var reg 1 U PC_write $end
$var reg 2 V data_in_mux [1:0] $end
$var reg 1 W mem_out_mux $end
$var reg 2 X memory_addr_mux [1:0] $end
$var reg 1 Y memory_write $end
$var reg 1 Z reg_buff1_write $end
$var reg 1 [ reg_buff2_write $end
$var reg 1 \ reg_write $end
$var reg 3 ] stage [2:0] $end
$var reg 1 ^ status_reg_write $end
$scope function alu_op $end
$var reg 1 _ alu_op $end
$var reg 5 ` op [4:0] $end
$upscope $end
$scope function cancel_branch $end
$var reg 1 a cancel_branch $end
$var reg 2 b cond [1:0] $end
$var reg 5 c op [4:0] $end
$upscope $end
$scope function cmp_op $end
$var reg 1 d cmp_op $end
$var reg 5 e op [4:0] $end
$upscope $end
$scope function load_op $end
$var reg 1 f load_op $end
$var reg 5 g op [4:0] $end
$upscope $end
$scope function store_op $end
$var reg 5 h op [4:0] $end
$var reg 1 i store_op $end
$upscope $end
$scope function type $end
$var reg 5 j op [4:0] $end
$var reg 3 k type [2:0] $end
$upscope $end
$scope function write_reg_file $end
$var reg 5 l op [4:0] $end
$var reg 1 m write_reg_file $end
$upscope $end
$scope task disable_write_signals $end
$upscope $end
$scope task zero_muxes $end
$upscope $end
$upscope $end
$scope module datapath $end
$var wire 16 n ALU_flags [15:0] $end
$var wire 16 o ALU_in2 [15:0] $end
$var wire 2 p ALU_in2_mux [1:0] $end
$var wire 3 q ALU_op [2:0] $end
$var wire 16 r ALU_out [15:0] $end
$var wire 1 > ALU_out_write $end
$var wire 1 ? IR_write $end
$var wire 16 s PC_in_wire [15:0] $end
$var wire 2 t PC_mux [1:0] $end
$var wire 1 A PC_write $end
$var wire 1 - clk $end
$var wire 16 u data_in [15:0] $end
$var wire 2 v data_in_mux [1:0] $end
$var wire 11 w imm1 [10:0] $end
$var wire 8 x imm2 [7:0] $end
$var wire 5 y imm3 [4:0] $end
$var wire 1 C mem_out_mux $end
$var wire 16 z memory_addr [15:0] $end
$var wire 2 { memory_addr_mux [1:0] $end
$var wire 16 | memory_in [15:0] $end
$var wire 16 } memory_out [15:0] $end
$var wire 5 ~ opcode [4:0] $end
$var wire 3 !" reg_addr1 [2:0] $end
$var wire 3 "" reg_addr2 [2:0] $end
$var wire 3 #" reg_addr_in [2:0] $end
$var wire 16 $" reg_buff1 [15:0] $end
$var wire 1 J reg_buff1_write $end
$var wire 16 %" reg_buff2 [15:0] $end
$var wire 1 K reg_buff2_write $end
$var wire 1 L reg_write $end
$var wire 1 N status_reg_write $end
$var reg 16 &" ALU_out_buff [15:0] $end
$var reg 16 '" PC [15:0] $end
$var reg 16 (" inst_reg [15:0] $end
$var reg 16 )" status_reg [15:0] $end
$scope module reg_file_mux $end
$var wire 16 *" in0 [15:0] $end
$var wire 16 +" in1 [15:0] $end
$var wire 16 ," in2 [15:0] $end
$var wire 16 -" in3 [15:0] $end
$var wire 2 ." select [1:0] $end
$var reg 16 /" out [15:0] $end
$upscope $end
$scope module registers $end
$var wire 3 0" addr1 [2:0] $end
$var wire 3 1" addr2 [2:0] $end
$var wire 3 2" addr_in [2:0] $end
$var wire 1 - clk $end
$var wire 16 3" data_in [15:0] $end
$var wire 1 L write $end
$var wire 1 J write_buff1 $end
$var wire 1 K write_buff2 $end
$var reg 16 4" reg_buff1 [15:0] $end
$var reg 16 5" reg_buff2 [15:0] $end
$upscope $end
$scope module alu $end
$var wire 16 6" flags [15:0] $end
$var wire 16 7" in_a [15:0] $end
$var wire 16 8" in_b [15:0] $end
$var wire 3 9" op [2:0] $end
$var reg 16 :" out [15:0] $end
$upscope $end
$scope module ALU_mux $end
$var wire 16 ;" in0 [15:0] $end
$var wire 16 <" in1 [15:0] $end
$var wire 16 =" in2 [15:0] $end
$var wire 16 >" in3 [15:0] $end
$var wire 2 ?" select [1:0] $end
$var reg 16 @" out [15:0] $end
$upscope $end
$scope module ir_decode $end
$var wire 3 A" alu_op [2:0] $end
$var wire 11 B" imm1 [10:0] $end
$var wire 8 C" imm2 [7:0] $end
$var wire 5 D" imm3 [4:0] $end
$var wire 16 E" instruction_reg [15:0] $end
$var wire 5 F" opcode [4:0] $end
$var wire 3 G" ra [2:0] $end
$var wire 3 H" rb [2:0] $end
$var wire 3 I" rc [2:0] $end
$var wire 3 J" reg_addr1 [2:0] $end
$var wire 3 K" reg_addr_in [2:0] $end
$var reg 3 L" reg_addr2 [2:0] $end
$upscope $end
$scope module PC_mux2 $end
$var wire 16 M" in0 [15:0] $end
$var wire 16 N" in1 [15:0] $end
$var wire 16 O" in2 [15:0] $end
$var wire 16 P" in3 [15:0] $end
$var wire 2 Q" select [1:0] $end
$var reg 16 R" out [15:0] $end
$upscope $end
$scope module Memory_mux2 $end
$var wire 16 S" in0 [15:0] $end
$var wire 16 T" in1 [15:0] $end
$var wire 16 U" in2 [15:0] $end
$var wire 16 V" in3 [15:0] $end
$var wire 2 W" select [1:0] $end
$var reg 16 X" out [15:0] $end
$upscope $end
$upscope $end
$upscope $end
$scope module mem $end
$var wire 16 Y" addr [15:0] $end
$var wire 1 - clk $end
$var wire 16 Z" data_in [15:0] $end
$var wire 16 [" data_out [15:0] $end
$var wire 16 \" in1 [15:0] $end
$var wire 8 ]" in_uart [7:0] $end
$var wire 16 ^" out1 [15:0] $end
$var wire 16 _" out2 [15:0] $end
$var wire 1 < uart_new_data $end
$var wire 1 `" write $end
$var integer 32 a" i [31:0] $end
$var reg 1 b" uart_new_data_prev $end
$upscope $end
$scope module baud_gen $end
$var wire 1 - clk $end
$var reg 1 c" baud $end
$var reg 1 d" baud_tx $end
$var reg 5 e" count [4:0] $end
$var reg 9 f" count_tx [8:0] $end
$upscope $end
$scope module uart_rx $end
$var wire 1 * clk $end
$var wire 1 9 reset $end
$var wire 1 $ rx $end
$var reg 3 g" bit [2:0] $end
$var reg 4 h" counter [3:0] $end
$var reg 8 i" data [7:0] $end
$var reg 1 j" ready $end
$var reg 2 k" state [1:0] $end
$upscope $end
$scope module counter_clk $end
$var wire 1 - in $end
$var wire 1 l" reset $end
$var reg 17 m" count [16:0] $end
$upscope $end
$scope module deb $end
$var wire 1 n" clk $end
$var wire 5 o" in [4:0] $end
$var reg 7 p" count [6:0] $end
$var reg 5 q" out [4:0] $end
$var reg 5 r" prev [4:0] $end
$upscope $end
$scope module sseg $end
$var wire 1 s" clk $end
$var wire 16 t" data [15:0] $end
$var reg 4 u" curr_dig [3:0] $end
$var reg 4 v" dig [3:0] $end
$var reg 2 w" dig_select [1:0] $end
$var reg 8 x" seg [7:0] $end
$upscope $end
$upscope $end
$upscope $end
$scope module project_test $end
$scope module project1 $end
$scope module cpu $end
$scope module datapath $end
$scope module registers $end
$var reg 16 y" \reg_file[0] [15:0] $end
$upscope $end
$upscope $end
$upscope $end
$upscope $end
$upscope $end
$scope module project_test $end
$scope module project1 $end
$scope module cpu $end
$scope module datapath $end
$scope module registers $end
$var reg 16 z" \reg_file[1] [15:0] $end
$upscope $end
$upscope $end
$upscope $end
$upscope $end
$upscope $end
$scope module project_test $end
$scope module project1 $end
$scope module cpu $end
$scope module datapath $end
$scope module registers $end
$var reg 16 {" \reg_file[2] [15:0] $end
$upscope $end
$upscope $end
$upscope $end
$upscope $end
$upscope $end
$scope module project_test $end
$scope module project1 $end
$scope module cpu $end
$scope module datapath $end
$scope module registers $end
$var reg 16 |" \reg_file[3] [15:0] $end
$upscope $end
$upscope $end
$upscope $end
$upscope $end
$upscope $end
$scope module project_test $end
$scope module project1 $end
$scope module cpu $end
$scope module datapath $end
$scope module registers $end
$var reg 16 }" \reg_file[4] [15:0] $end
$upscope $end
$upscope $end
$upscope $end
$upscope $end
$upscope $end
$scope module project_test $end
$scope module project1 $end
$scope module cpu $end
$scope module datapath $end
$scope module registers $end
$var reg 16 ~" \reg_file[5] [15:0] $end
$upscope $end
$upscope $end
$upscope $end
$upscope $end
$upscope $end
$scope module project_test $end
$scope module project1 $end
$scope module cpu $end
$scope module datapath $end
$scope module registers $end
$var reg 16 !# \reg_file[6] [15:0] $end
$upscope $end
$upscope $end
$upscope $end
$upscope $end
$upscope $end
$scope module project_test $end
$scope module project1 $end
$scope module cpu $end
$scope module datapath $end
$scope module registers $end
$var reg 16 "# \reg_file[7] [15:0] $end
$upscope $end
$upscope $end
$upscope $end
$upscope $end
$upscope $end
$enddefinitions $end
#0
$dumpvars
bx "#
bx !#
bx ~"
bx }"
bx |"
bx {"
bx z"
bx y"
bx x"
b0 w"
bx v"
bx u"
b0 t"
0s"
bx r"
bx q"
bx p"
bzxxxx o"
0n"
b0 m"
0l"
bx k"
xj"
bx i"
bx h"
bx g"
b0 f"
b0 e"
xd"
xc"
xb"
b10000000 a"
0`"
b0 _"
b0 ^"
bx ]"
b110 \"
b1111100001000001 ["
bx Z"
b0 Y"
b0 X"
b0 W"
bx V"
b0xxxxxxxx U"
bx T"
b0 S"
b1 R"
b0 Q"
b0 P"
bx O"
b0xxxxxxxxxxx N"
b1 M"
bx L"
bx K"
bx J"
bx I"
bx H"
bx G"
bx F"
bx E"
bx D"
bx C"
bx B"
bx A"
bx @"
b0 ?"
b0 >"
b0xxxxxxxx ="
b0xxxxx <"
bx ;"
bx :"
bx 9"
bx 8"
bx 7"
b0xxx 6"
bx 5"
bx 4"
bx 3"
bx 2"
bx 1"
bx 0"
bx /"
b0 ."
b0 -"
b0xxxxxxxx ,"
b1111100001000001 +"
bx *"
bx )"
bx ("
b0 '"
bx &"
bx %"
bx $"
bx #"
bx ""
bx !"
bx ~
bx }
b1111100001000001 |
b0 {
b0 z
bx y
bx x
bx w
b0 v
bx u
b0 t
b1 s
bx r
bx q
b0 p
bx o
b0xxx n
xm
bx l
bx k
bx j
xi
bx h
bx g
xf
bx e
xd
bx c
bx b
xa
bx `
x_
0^
b0 ]
0\
0[
0Z
0Y
b0 X
0W
b0 V
1U
b0 T
1S
0R
b0 Q
bx P
bx O
0N
bx M
0L
0K
0J
bx I
0H
bx G
b1111100001000001 F
b0 E
b0 D
0C
b0 B
1A
b0 @
1?
0>
b0 =
x<
b0 ;
bx :
x9
bx 8
b0 7
b0 6
b0 5
b1111100001000001 4
b0 3
b1111 2
b110 1
bx 0
bx /
bx .
0-
bx ,
x+
x*
b1000 )
0(
bx '
z&
bx %
z$
z#
b1111 "
bx !
$end
#20000
b111 q
b111 9"
b111 A"
b0 !"
b0 0"
b0 J"
b1 #"
b1 2"
b1 K"
b1 L"
b1 ""
b1 1"
0d
b11111 e
b11111 j
0_
b11111 `
b10 R"
b10 s
b1 G"
b0 H"
b1 I"
b1000001 N"
b1000001 w
b1000001 B"
b1000 U"
b1000 ="
b1000 ,"
b1000 x
b1000 C"
b1 <"
b1 y
b1 D"
b11111 I
b11111 O
b11111 ~
b11111 F"
b10 M"
b1 X"
b1111100000000101 4
b1111100000000101 F
b1111100000000101 |
b1111100000000101 +"
b1111100000000101 ["
b1 3
b1 D
b1 z
b1 Y"
0[
0K
0Z
0J
b11 k
0U
0A
0S
0?
b1111100001000001 ("
b1111100001000001 E"
b1 '"
b1 -"
b1 S"
b1 ]
b1 m"
b1 ;
b1 e"
0c"
0*
b1 f"
0d"
0+
1(
1-
#40000
0(
0-
#60000
b1000 /"
b1000 u
b1000 3"
1\
1L
b10 V
b10 B
b10 v
b10 ."
1m
b11111 l
b100 ]
b10 m"
b10 ;
b10 f"
b10 e"
0a
b11111 c
1(
1-
#80000
0(
0-
#100000
bx /"
bx u
bx 3"
1U
1A
1S
1?
b0 V
b0 B
b0 v
b0 ."
0\
0L
b0 ]
b11 m"
b11 ;
b1000 z"
b11 e"
b11 f"
1(
1-
#120000
0(
0-
#140000
b101 #"
b101 2"
b101 K"
b0 L"
b0 ""
b0 1"
b11 R"
b11 s
b11 M"
b10 X"
b1111001111111101 4
b1111001111111101 F
b1111001111111101 |
b1111001111111101 +"
b1111001111111101 ["
b10 3
b10 D
b10 z
b10 Y"
b101 G"
b0 I"
b101 N"
b101 w
b101 B"
b0 U"
b0 ="
b0 ,"
b0 x
b0 C"
b0 <"
b0 y
b0 D"
0U
0A
0S
0?
b10 '"
b10 -"
b10 S"
b1111100000000101 ("
b1111100000000101 E"
b1 ]
b100 m"
b100 ;
b100 f"
b100 e"
1(
1-
#160000
0(
0-
#180000
b0 /"
b0 u
b0 3"
1\
1L
b10 V
b10 B
b10 v
b10 ."
b100 ]
b101 m"
b101 ;
b101 e"
b101 f"
1(
1-
#200000
0(
0-
#220000
bx /"
bx u
bx 3"
1U
1A
1S
1?
b0 V
b0 B
b0 v
b0 ."
0\
0L
b0 ]
b110 m"
b110 ;
b110 f"
b110 e"
b0 ~"
1(
1-
#240000
0(
0-
#260000
b110 q
b110 9"
b110 A"
b101 !"
b101 0"
b101 J"
b111 L"
b111 ""
b111 1"
1Z
1J
b11110 e
b11110 j
b11110 `
b100 R"
b100 s
b111 H"
b111 I"
b1111111101 N"
b1111111101 w
b1111111101 B"
b1111111 U"
b1111111 ="
b1111111 ,"
b1111111 x
b1111111 C"
b1111 <"
b1111 y
b1111 D"
b11110 I
b11110 O
b11110 ~
b11110 F"
b100 M"
b11 X"
b100000001101101 4
b100000001101101 F
b100000001101101 |
b100000001101101 +"
b100000001101101 ["
b11 3
b11 D
b11 z
b11 Y"
0U
0A
0S
0?
b1111001111111101 ("
b1111001111111101 E"
b11 '"
b11 -"
b11 S"
b1 ]
b111 m"
b111 ;
b111 e"
b111 f"
1(
1-
#280000
0(
0-
#300000
1`"
b0 .
b0 G
b0 }
b0 Z"
b1111111 X"
b0 4
b0 F
b0 |
b0 +"
b0 ["
b1111111 3
b1111111 D
b1111111 z
b1111111 Y"
1Y
1H
b1 5
1W
1C
b10 X
b10 E
b10 {
b10 W"
0Z
0J
b11 ]
b1000 m"
b1000 ;
b1000 f"
b1000 e"
b0 4"
b0 $"
b0 7"
b0 O"
b0 T"
b11110 c
1(
1-
#320000
0(
0-
#340000
bx .
bx G
bx }
bx Z"
b11 X"
b100000001101101 4
b100000001101101 F
b100000001101101 |
b100000001101101 +"
b100000001101101 ["
b11 3
b11 D
b11 z
b11 Y"
0`"
1U
1A
1S
1?
0W
0C
b0 X
b0 E
b0 {
b0 W"
0Y
0H
b0 5
b0 ]
b1001 m"
b1001 ;
b1001 e"
b1001 f"
1(
1-
#360000
0(
0-
#380000
b0 q
b0 9"
b0 A"
b101 R"
b101 s
b1 L"
b1 ""
b1 1"
b1000 e
b10 k
b1000 j
1_
b1000 `
b101 M"
b100 X"
b1111001111110001 4
b1111001111110001 F
b1111001111110001 |
b1111001111110001 +"
b1111001111110001 ["
b100 3
b100 D
b100 z
b100 Y"
b101 H"
b1 I"
b1101101 N"
b1101101 w
b1101101 B"
b1101 U"
b1101 ="
b1101 ,"
b1101 x
b1101 C"
b1 <"
b1 y
b1 D"
b1000 I
b1000 O
b1000 ~
b1000 F"
1Z
1J
0U
0A
0S
0?
b100 '"
b100 -"
b100 S"
b100000001101101 ("
b100000001101101 E"
b1 ]
b1010 m"
b1010 ;
b1010 f"
b1010 e"
1(
1-
#400000
0(
0-
#420000
b1 :"
b1 r
b1 @"
b0 n
b0 6"
b1 o
b1 8"
1^
1N
1R
1>
b1 Q
b1 =
b1 p
b1 ?"
0Z
0J
b10 ]
b1011 m"
b1011 ;
b1011 e"
b1011 f"
b1000 c
1(
1-
#440000
0(
0-
#460000
bx :"
bx r
bx @"
b0xxx n
b0xxx 6"
bx o
bx 8"
b1 /"
b1 u
b1 3"
1\
1L
b1000 l
b0 Q
b0 =
b0 p
b0 ?"
0^
0N
0R
0>
b0 )"
b0 M
b0 P
b1 &"
b1 *"
b1 V"
b100 ]
b1100 m"
b1100 ;
b1100 f"
b1100 e"
1(
1-
#480000
0(
0-
#500000
1U
1A
1S
1?
0\
0L
b0 ]
b1101 m"
b1101 ;
b1 ~"
b1101 e"
b1101 f"
1(
1-
#520000
0(
0-
#540000
b110 q
b110 9"
b110 A"
b1 #"
b1 2"
b1 K"
b1 !"
b1 0"
b1 J"
b110 R"
b110 s
b111 L"
b111 ""
b111 1"
b11110 e
b11 k
b11110 j
0_
b11110 `
b110 M"
b101 X"
b1111100010100011 4
b1111100010100011 F
b1111100010100011 |
b1111100010100011 +"
b1111100010100011 ["
b101 3
b101 D
b101 z
b101 Y"
b1 G"
b110 H"
b111 I"
b1111110001 N"
b1111110001 w
b1111110001 B"
b1111110 U"
b1111110 ="
b1111110 ,"
b1111110 x
b1111110 C"
b1111 <"
b1111 y
b1111 D"
b11110 I
b11110 O
b11110 ~
b11110 F"
1Z
1J
0U
0A
0S
0?
b101 '"
b101 -"
b101 S"
b1111001111110001 ("
b1111001111110001 E"
b1 ]
b1110 m"
b1110 ;
b1110 f"
b1110 e"
1(
1-
#560000
0(
0-
#580000
1`"
b1000 .
b1000 G
b1000 }
b1000 Z"
b1111110 X"
b0 4
b0 F
b0 |
b0 +"
b0 ["
b1111110 3
b1111110 D
b1111110 z
b1111110 Y"
1Y
1H
b1 5
1W
1C
b10 X
b10 E
b10 {
b10 W"
0Z
0J
b11 ]
b1111 m"
b1111 ;
b1000 4"
b1000 $"
b1000 7"
b1000 O"
b1000 T"
b1111 e"
b1111 f"
b0 b
b11110 c
1(
1-
#600000
0(
0-
#620000
b111 "
b111 2
bx .
bx G
bx }
bx Z"
b101 X"
b101 3
b101 D
b101 z
b101 Y"
0`"
1U
1A
1S
1?
0W
0C
b0 X
b0 E
b0 {
b0 W"
0Y
0H
b0 5
b1111100010100011 4
b1111100010100011 F
b1111100010100011 |
b1111100010100011 +"
b1111100010100011 ["
b1000 7
b1000 _"
b0 ]
b10000 m"
b10000 ;
b10000 f"
b10000 e"
1(
1-
#640000
0(
0-
#660000
b111 q
b111 9"
b111 A"
b100 !"
b100 0"
b100 J"
b11 #"
b11 2"
b11 K"
b10 L"
b10 ""
b10 1"
b11111 e
b11111 j
b11111 `
b111 R"
b111 s
b11 G"
b100 H"
b10 I"
b10100011 N"
b10100011 w
b10100011 B"
b10100 U"
b10100 ="
b10100 ,"
b10100 x
b10100 C"
b10 <"
b10 y
b10 D"
b11111 I
b11111 O
b11111 ~
b11111 F"
b111 M"
b110 X"
b1011100000001111 4
b1011100000001111 F
b1011100000001111 |
b1011100000001111 +"
b1011100000001111 ["
b110 3
b110 D
b110 z
b110 Y"
0Z
0J
0U
0A
0S
0?
b1111100010100011 ("
b1111100010100011 E"
b110 '"
b110 -"
b110 S"
b1 ]
b10001 m"
b10001 ;
b10001 e"
b10001 f"
1(
1-
#680000
0(
0-
#700000
b10100 /"
b10100 u
b10100 3"
1\
1L
b10 V
b10 B
b10 v
b10 ."
b11111 l
b100 ]
b10010 m"
b10010 ;
b10010 f"
b10010 e"
b11111 c
1(
1-
#720000
0(
0-
#740000
b1 /"
b1 u
b1 3"
1U
1A
1S
1?
b0 V
b0 B
b0 v
b0 ."
0\
0L
b0 ]
b10011 m"
b10011 ;
b10100 |"
b10011 e"
b10011 f"
1(
1-
#760000
0(
0-
#780000
b1 !"
b1 0"
b1 J"
b1000 R"
b1000 s
b111 #"
b111 2"
b111 K"
b0 L"
b0 ""
b0 1"
b10111 e
b100 k
b10111 j
b10111 `
b1000 M"
b111 X"
b100100001011011 4
b100100001011011 F
b100100001011011 |
b100100001011011 +"
b100100001011011 ["
b111 3
b111 D
b111 z
b111 Y"
b111 G"
b1 H"
b0 I"
b1111 N"
b1111 w
b1111 B"
b1 U"
b1 ="
b1 ,"
b1 x
b1 C"
b0 <"
b0 y
b0 D"
b10111 I
b10111 O
b10111 ~
b10111 F"
0U
0A
0S
0?
b111 '"
b111 -"
b111 S"
b1011100000001111 ("
b1011100000001111 E"
b1 ]
b10100 m"
b10100 ;
b10100 f"
b10100 e"
1(
1-
#800000
0(
0-
#820000
b1111 R"
b1111 s
b111 /"
b111 u
b111 3"
1U
1A
b1 T
b1 @
b1 t
b1 Q"
1\
1L
b11 V
b11 B
b11 v
b11 ."
b10111 l
b100 ]
b10101 m"
b10101 ;
b10101 e"
b10101 f"
b10111 c
1(
1-
#840000
0(
0-
#860000
b10000 R"
b10000 s
b10000 M"
b1111 X"
b1101100000000111 4
b1101100000000111 F
b1101100000000111 |
b1101100000000111 +"
b1101100000000111 ["
b1111 3
b1111 D
b1111 z
b1111 Y"
b1 /"
b1 u
b1 3"
1S
1?
b0 T
b0 @
b0 t
b0 Q"
b0 V
b0 B
b0 v
b0 ."
0\
0L
1U
1A
b1111 '"
b1111 -"
b1111 S"
b0 ]
b10110 m"
b10110 ;
b10110 f"
b10110 e"
b111 "#
1(
1-
#880000
0(
0-
#900000
b0x000 :"
b0x000 r
b11 q
b11 9"
b11 A"
b111 !"
b111 0"
b111 J"
1Z
1J
b11011 e
b10 k
b11011 j
b11011 `
b10001 R"
b10001 s
b0 H"
b111 N"
b111 w
b111 B"
b0 U"
b0 ="
b0 ,"
b0 x
b0 C"
b11011 I
b11011 O
b11011 ~
b11011 F"
b10001 M"
b10000 X"
b1111111111111010 4
b1111111111111010 F
b1111111111111010 |
b1111111111111010 +"
b1111111111111010 ["
b10000 3
b10000 D
b10000 z
b10000 Y"
0U
0A
0S
0?
b1101100000000111 ("
b1101100000000111 E"
b10000 '"
b10000 -"
b10000 S"
b1 ]
b10111 m"
b10111 ;
b10111 e"
b10111 f"
1(
1-
#920000
0(
0-
#940000
b111 R"
b111 s
1U
1A
b10 T
b10 @
b10 t
b10 Q"
0m
b11011 l
0Z
0J
b100 ]
b0xxx :"
b0xxx r
b11000 m"
b11000 ;
b11000 f"
b11000 e"
b111 4"
b111 $"
b111 7"
b111 O"
b111 T"
b11011 c
1(
1-
#960000
0(
0-
#980000
b1000 R"
b1000 s
b1000 M"
b111 X"
b100100001011011 4
b100100001011011 F
b100100001011011 |
b100100001011011 +"
b100100001011011 ["
b111 3
b111 D
b111 z
b111 Y"
1S
1?
b0 T
b0 @
b0 t
b0 Q"
1U
1A
b111 '"
b111 -"
b111 S"
b0 ]
b11001 m"
b11001 ;
b11001 e"
b11001 f"
1(
1-
#1000000
0(
0-
#1020000
bx :"
bx r
b1 q
b1 9"
b1 A"
b11 !"
b11 0"
b11 J"
b11 #"
b11 2"
b11 K"
b1001 R"
b1001 s
b1 L"
b1 ""
b1 1"
b1001 e
b1001 j
1_
b1001 `
b1001 M"
b1000 X"
b1110000000000011 4
b1110000000000011 F
b1110000000000011 |
b1110000000000011 +"
b1110000000000011 ["
b1000 3
b1000 D
b1000 z
b1000 Y"
b11 G"
b11 H"
b1 I"
b1011011 N"
b1011011 w
b1011011 B"
b1011 U"
b1011 ="
b1011 ,"
b1011 x
b1011 C"
b1 <"
b1 y
b1 D"
b1001 I
b1001 O
b1001 ~
b1001 F"
1Z
1J
0U
0A
0S
0?
b1000 '"
b1000 -"
b1000 S"
b100100001011011 ("
b100100001011011 E"
b1 ]
b11010 m"
b11010 ;
b11010 f"
b11010 e"
1(
1-
#1040000
0(
0-
#1060000
b10011 :"
b10011 r
b1 @"
b10 n
b10 6"
b1 o
b1 8"
1^
1N
1R
1>
b1 Q
b1 =
b1 p
b1 ?"
0Z
0J
b10 ]
b11011 m"
b11011 ;
b10100 4"
b10100 $"
b10100 7"
b10100 O"
b10100 T"
b11011 e"
b11011 f"
b1001 c
1(
1-
#1080000
0(
0-
#1100000
bx :"
bx r
bx @"
b0xxx n
b0xxx 6"
bx o
bx 8"
b10011 /"
b10011 u
b10011 3"
1\
1L
1m
b1001 l
b0 Q
b0 =
b0 p
b0 ?"
0^
0N
0R
0>
b10 )"
b10 M
b10 P
b10011 &"
b10011 *"
b10011 V"
b100 ]
b11100 m"
b11100 ;
b11100 f"
1c"
1*
b0 e"
1(
1-
#1120000
0(
0-
#1140000
1U
1A
1S
1?
0\
0L
b0 ]
b11101 m"
b11101 ;
b10011 |"
b1 e"
0c"
0*
b11101 f"
1(
1-
#1160000
0(
0-
#1180000
bx1x1xx :"
b0xx n
b0xx 6"
bx1x1xx r
b100 q
b100 9"
b100 A"
b1010 R"
b1010 s
b0 L"
b0 ""
b0 1"
1d
b11100 e
b11 k
b11100 j
0_
b11100 `
b1010 M"
b1001 X"
b1001000000000110 4
b1001000000000110 F
b1001000000000110 |
b1001000000000110 +"
b1001000000000110 ["
b1001 3
b1001 D
b1001 z
b1001 Y"
b0 H"
b0 I"
b11 N"
b11 w
b11 B"
b0 U"
b0 ="
b0 ,"
b0 x
b0 C"
b0 <"
b0 y
b0 D"
b11100 I
b11100 O
b11100 ~
b11100 F"
1Z
1J
0U
0A
0S
0?
b1001 '"
b1001 -"
b1001 S"
b1110000000000011 ("
b1110000000000011 E"
b1 ]
b11110 m"
b11110 ;
b11110 f"
b10 e"
1(
1-
#1200000
0(
0-
#1220000
b0 @"
b10 n
b10 6"
b0 o
b0 8"
1^
1N
1R
1>
b10 Q
b10 =
b10 p
b10 ?"
0Z
0J
b10 ]
b10011 :"
b10011 r
b11111 m"
b11111 ;
b10011 4"
b10011 $"
b10011 7"
b10011 O"
b10011 T"
b11 e"
b11111 f"
b10 b
b11100 c
1(
1-
#1240000
0(
0-
#1260000
bx1xx11 :"
bx1xx11 r
bx @"
b0xx n
b0xx 6"
bx o
bx 8"
1U
1A
1S
1?
b0 Q
b0 =
b0 p
b0 ?"
0^
0N
0R
0>
b0 ]
b100000 m"
b100000 ;
b100000 f"
b100 e"
1(
1-
#1280000
0(
0-
#1300000
b1111111111101100 :"
b1111111111101100 r
b10 q
b10 9"
b10 A"
b0 !"
b0 0"
b0 J"
b110 #"
b110 2"
b110 K"
0d
b10010 e
b100 k
b10010 j
b10010 `
b1011 R"
b1011 s
b110 G"
b110 N"
b110 w
b110 B"
b10010 I
b10010 O
b10010 ~
b10010 F"
b1011 M"
b1010 X"
b111100001001001 4
b111100001001001 F
b111100001001001 |
b111100001001001 +"
b111100001001001 ["
b1010 3
b1010 D
b1010 z
b1010 Y"
0Z
0J
0U
0A
0S
0?
b1001000000000110 ("
b1001000000000110 E"
b1010 '"
b1010 -"
b1010 S"
b1 ]
b100001 m"
b100001 ;
b101 e"
b100001 f"
1(
1-
#1320000
0(
0-
#1340000
b110 R"
b110 s
1U
1A
b1 T
b1 @
b1 t
b1 Q"
0m
b10010 l
b100 ]
b100010 m"
b100010 ;
b100010 f"
b110 e"
b10010 c
1(
1-
#1360000
0(
0-
#1380000
b111 R"
b111 s
b111 M"
b110 X"
b1011100000001111 4
b1011100000001111 F
b1011100000001111 |
b1011100000001111 +"
b1011100000001111 ["
b110 3
b110 D
b110 z
b110 Y"
1S
1?
b0 T
b0 @
b0 t
b0 Q"
1U
1A
b110 '"
b110 -"
b110 S"
b0 ]
b100011 m"
b100011 ;
b111 e"
b100011 f"
1(
1-
#1400000
0(
0-
#1420000
bx :"
b0xxx n
b0xxx 6"
bx r
b111 q
b111 9"
b111 A"
b1 !"
b1 0"
b1 J"
b1000 R"
b1000 s
b111 #"
b111 2"
b111 K"
b10111 e
b10111 j
b10111 `
b1000 M"
b111 X"
b100100001011011 4
b100100001011011 F
b100100001011011 |
b100100001011011 +"
b100100001011011 ["
b111 3
b111 D
b111 z
b111 Y"
b111 G"
b1 H"
b1111 N"
b1111 w
b1111 B"
b1 U"
b1 ="
b1 ,"
b1 x
b1 C"
b10111 I
b10111 O
b10111 ~
b10111 F"
0U
0A
0S
0?
b111 '"
b111 -"
b111 S"
b1011100000001111 ("
b1011100000001111 E"
b1 ]
b100100 m"
b100100 ;
b100100 f"
b1000 e"
1(
1-
#1440000
0(
0-
