tests/dump_uart.vcd
$date
	Mon May 14 17:32:38 2018
$end
$version
	Icarus Verilog
$end
$timescale
	1s
$end
$scope module uart_tb $end
$var wire 1 ! tx $end
$var wire 1 " ready $end
$var wire 8 # data [7:0] $end
$var reg 1 $ b $end
$var reg 4 % bt [3:0] $end
$var reg 1 & clk $end
$var reg 4 ' ct [3:0] $end
$var reg 12 ( d [11:0] $end
$var reg 1 ) reset $end
$scope module uart1 $end
$var wire 1 & clk $end
$var wire 1 ) reset $end
$var wire 1 $ rx $end
$var wire 1 ! tx $end
$var reg 3 * bit [2:0] $end
$var reg 4 + counter [3:0] $end
$var reg 8 , data [7:0] $end
$var reg 1 " ready $end
$var reg 2 - state [1:0] $end
$upscope $end
$scope task clock $end
$upscope $end
$upscope $end
$enddefinitions $end
#0
$dumpvars
b0 -
b0 ,
b0 +
b0 *
1)
b11011101001 (
b0 '
0&
b0 %
1$
b0 #
0"
z!
$end
#1
b0 +
0)
#10
b0 +
1&
b1 '
#11
0&
#21
b0 +
1&
b10 '
#22
0&
#32
b0 +
1&
b11 '
#33
0&
#43
b0 +
1&
b100 '
#44
0&
#54
b0 +
1&
b101 '
#55
0&
#65
b0 +
1&
b110 '
#66
0&
#76
b0 +
1&
b111 '
#77
0&
#87
b0 +
1&
b1000 '
#88
0&
#98
b0 +
1&
b1001 '
#99
0&
#109
b0 +
1&
b1010 '
#110
0&
#120
b0 +
1&
b1011 '
#121
0&
#131
b0 +
1&
b1100 '
#132
0&
#142
b0 +
1&
b1101 '
#143
0&
#153
b0 +
1&
b1110 '
#154
0&
#164
b0 +
1&
b1111 '
#165
0&
#175
b0 +
1&
b0 '
#176
b1 %
0&
#186
b0 +
1&
b1 '
#187
0&
#197
b0 +
1&
b10 '
#198
0&
#208
b0 +
1&
b11 '
#209
0&
#219
b0 +
1&
b100 '
#220
0&
#230
b0 +
1&
b101 '
#231
0&
#241
b0 +
1&
b110 '
#242
0&
#252
b0 +
1&
b111 '
#253
0&
#263
b0 +
1&
b1000 '
#264
0&
#274
b0 +
1&
b1001 '
#275
0&
#285
b0 +
1&
b1010 '
#286
0&
#296
b0 +
1&
b1011 '
#297
0&
#307
b0 +
1&
b1100 '
#308
0&
#318
b0 +
1&
b1101 '
#319
0&
#329
b0 +
1&
b1110 '
#330
0&
#340
b0 +
1&
b1111 '
#341
0&
#351
b0 +
1&
b0 '
#352
b10 %
0$
0&
#362
b1 -
b1 +
1&
b1 '
#363
0&
#373
b10 +
1&
b10 '
#374
0&
#384
b11 +
1&
b11 '
#385
0&
#395
b100 +
1&
b100 '
#396
0&
#406
b101 +
1&
b101 '
#407
0&
#417
b110 +
1&
b110 '
#418
0&
#428
b111 +
1&
b111 '
#429
0&
#439
b1000 +
1&
b1000 '
#440
0&
#450
b1001 +
1&
b1001 '
#451
0&
#461
b1010 +
1&
b1010 '
#462
0&
#472
b1011 +
1&
b1011 '
#473
0&
#483
b1100 +
1&
b1100 '
#484
0&
#494
b1101 +
1&
b1101 '
#495
0&
#505
b1110 +
1&
b1110 '
#506
0&
#516
b1111 +
1&
b1111 '
#517
0&
#527
b10 -
b0 +
1&
b0 '
#528
b11 %
0&
#538
b1 +
1&
b1 '
#539
0&
#549
b10 +
1&
b10 '
#550
0&
#560
b11 +
1&
b11 '
#561
0&
#571
b100 +
1&
b100 '
#572
0&
#582
b101 +
1&
b101 '
#583
0&
#593
b110 +
1&
b110 '
#594
0&
#604
b111 +
1&
b111 '
#605
0&
#615
b1000 +
1&
b1000 '
#616
0&
#626
b1001 +
1&
b1001 '
#627
0&
#637
b1 *
b1010 +
1&
b1010 '
#638
0&
#648
b1011 +
1&
b1011 '
#649
0&
#659
b1100 +
1&
b1100 '
#660
0&
#670
b1101 +
1&
b1101 '
#671
0&
#681
b1110 +
1&
b1110 '
#682
0&
#692
b1111 +
1&
b1111 '
#693
0&
#703
b0 +
1&
b0 '
#704
b100 %
1$
0&
#714
b1 +
1&
b1 '
#715
0&
#725
b10 +
1&
b10 '
#726
0&
#736
b11 +
1&
b11 '
#737
0&
#747
b10 #
b10 ,
b100 +
1&
b100 '
#748
0&
#758
b101 +
1&
b101 '
#759
0&
#769
b110 +
1&
b110 '
#770
0&
#780
b111 +
1&
b111 '
#781
0&
#791
b1000 +
1&
b1000 '
#792
0&
#802
b1001 +
1&
b1001 '
#803
0&
#813
b10 *
b1010 +
1&
b1010 '
#814
0&
#824
b1011 +
1&
b1011 '
#825
0&
#835
b1100 +
1&
b1100 '
#836
0&
#846
b1101 +
1&
b1101 '
#847
0&
#857
b1110 +
1&
b1110 '
#858
0&
#868
b1111 +
1&
b1111 '
#869
0&
#879
b0 +
1&
b0 '
#880
b101 %
0$
0&
#890
b1 +
1&
b1 '
#891
0&
#901
b10 +
1&
b10 '
#902
0&
#912
b11 +
1&
b11 '
#913
0&
#923
b100 +
1&
b100 '
#924
0&
#934
b101 +
1&
b101 '
#935
0&
#945
b110 +
1&
b110 '
#946
0&
#956
b111 +
1&
b111 '
#957
0&
#967
b1000 +
1&
b1000 '
#968
0&
#978
b1001 +
1&
b1001 '
#979
0&
#989
b11 *
b1010 +
1&
b1010 '
#990
0&
#1000
b1011 +
1&
b1011 '
#1001
0&
#1011
b1100 +
1&
b1100 '
#1012
0&
#1022
b1101 +
1&
b1101 '
#1023
0&
#1033
b1110 +
1&
b1110 '
#1034
0&
#1044
b1111 +
1&
b1111 '
#1045
0&
#1055
b0 +
1&
b0 '
#1056
b110 %
1$
0&
#1066
b1 +
1&
b1 '
#1067
0&
#1077
b10 +
1&
b10 '
#1078
0&
#1088
b11 +
1&
b11 '
#1089
0&
#1099
b1010 #
b1010 ,
b100 +
1&
b100 '
#1100
0&
#1110
b101 +
1&
b101 '
#1111
0&
#1121
b110 +
1&
b110 '
#1122
0&
#1132
b111 +
1&
b111 '
#1133
0&
#1143
b1000 +
1&
b1000 '
#1144
0&
#1154
b1001 +
1&
b1001 '
#1155
0&
#1165
b100 *
b1010 +
1&
b1010 '
#1166
0&
#1176
b1011 +
1&
b1011 '
#1177
0&
#1187
b1100 +
1&
b1100 '
#1188
0&
#1198
b1101 +
1&
b1101 '
#1199
0&
#1209
b1110 +
1&
b1110 '
#1210
0&
#1220
b1111 +
1&
b1111 '
#1221
0&
#1231
b0 +
1&
b0 '
#1232
b111 %
0&
#1242
b1 +
1&
b1 '
#1243
0&
#1253
b10 +
1&
b10 '
#1254
0&
#1264
b11 +
1&
b11 '
#1265
0&
#1275
b11010 #
b11010 ,
b100 +
1&
b100 '
#1276
0&
#1286
b101 +
1&
b101 '
#1287
0&
#1297
b110 +
1&
b110 '
#1298
0&
#1308
b111 +
1&
b111 '
#1309
0&
#1319
b1000 +
1&
b1000 '
#1320
0&
#1330
b1001 +
1&
b1001 '
#1331
0&
#1341
b101 *
b1010 +
1&
b1010 '
#1342
0&
#1352
b1011 +
1&
b1011 '
#1353
0&
#1363
b1100 +
1&
b1100 '
#1364
0&
#1374
b1101 +
1&
b1101 '
#1375
0&
#1385
b1110 +
1&
b1110 '
#1386
0&
#1396
b1111 +
1&
b1111 '
#1397
0&
#1407
b0 +
1&
b0 '
#1408
b1000 %
0&
#1418
b1 +
1&
b1 '
#1419
0&
#1429
b10 +
1&
b10 '
#1430
0&
#1440
b11 +
1&
b11 '
#1441
0&
#1451
b111010 #
b111010 ,
b100 +
1&
b100 '
#1452
0&
#1462
b101 +
1&
b101 '
#1463
0&
#1473
b110 +
1&
b110 '
#1474
0&
#1484
b111 +
1&
b111 '
#1485
0&
#1495
b1000 +
1&
b1000 '
#1496
0&
#1506
b1001 +
1&
b1001 '
#1507
0&
#1517
b110 *
b1010 +
1&
b1010 '
#1518
0&
#1528
b1011 +
1&
b1011 '
#1529
0&
#1539
b1100 +
1&
b1100 '
#1540
0&
#1550
b1101 +
1&
b1101 '
#1551
0&
#1561
b1110 +
1&
b1110 '
#1562
0&
#1572
b1111 +
1&
b1111 '
#1573
0&
#1583
b0 +
1&
b0 '
#1584
b1001 %
0$
0&
#1594
b1 +
1&
b1 '
#1595
0&
#1605
b10 +
1&
b10 '
#1606
0&
#1616
b11 +
1&
b11 '
#1617
0&
#1627
b100 +
1&
b100 '
#1628
0&
#1638
b101 +
1&
b101 '
#1639
0&
#1649
b110 +
1&
b110 '
#1650
0&
#1660
b111 +
1&
b111 '
#1661
0&
#1671
b1000 +
1&
b1000 '
#1672
0&
#1682
b1001 +
1&
b1001 '
#1683
0&
#1693
b111 *
b1010 +
1&
b1010 '
#1694
0&
#1704
b1011 +
1&
b1011 '
#1705
0&
#1715
b1100 +
1&
b1100 '
#1716
0&
#1726
b1101 +
1&
b1101 '
#1727
0&
#1737
b1110 +
1&
b1110 '
#1738
0&
#1748
b1111 +
1&
b1111 '
#1749
0&
#1759
b0 +
1&
b0 '
#1760
b1010 %
1$
0&
#1770
b1 +
1&
b1 '
#1771
0&
#1781
b10 +
1&
b10 '
#1782
0&
#1792
b11 +
1&
b11 '
#1793
0&
#1803
b10111010 #
b10111010 ,
b100 +
1&
b100 '
#1804
0&
#1814
b101 +
1&
b101 '
#1815
0&
#1825
b110 +
1&
b110 '
#1826
0&
#1836
b111 +
1&
b111 '
#1837
0&
#1847
b1000 +
1&
b1000 '
#1848
0&
#1858
b1001 +
1&
b1001 '
#1859
0&
#1869
b11 -
b1010 +
1&
b1010 '
#1870
0&
#1880
b1011 +
1&
b1011 '
#1881
0&
#1891
b1100 +
1&
b1100 '
#1892
0&
#1902
b1101 +
1&
b1101 '
#1903
0&
#1913
b1110 +
1&
b1110 '
#1914
0&
#1924
b1111 +
1&
b1111 '
#1925
0&
#1935
b0 +
1&
b0 '
#1936
b1011 %
0&
#1946
b1 +
1&
b1 '
#1947
0&
#1957
b10 +
1&
b10 '
#1958
0&
#1968
b11 +
1&
b11 '
#1969
0&
#1979
b0 -
1"
b100 +
1&
b100 '
#1980
0&
#1990
b0 +
1&
b101 '
#1991
0&
#2001
b0 +
1&
b110 '
#2002
0&
#2012
b0 +
1&
b111 '
#2013
0&
#2023
b0 +
1&
b1000 '
#2024
0&
#2034
b0 +
1&
b1001 '
#2035
0&
#2045
b0 +
1&
b1010 '
#2046
0&
#2056
b0 +
1&
b1011 '
#2057
0&
#2067
b0 +
1&
b1100 '
#2068
0&
#2078
b0 +
1&
b1101 '
#2079
0&
#2089
b0 +
1&
b1110 '
#2090
0&
#2100
b0 +
1&
b1111 '
#2101
0&
#2111
b0 +
1&
b0 '
#2112
b1100 %
0$
0&
#2122
b1 -
b0 *
b1 +
1&
b1 '
#2123
0&
#2133
b10 +
1&
b10 '
#2134
0&
#2144
b11 +
1&
b11 '
#2145
0&
#2155
b100 +
1&
b100 '
#2156
0&
#2166
b101 +
1&
b101 '
#2167
0&
#2177
b110 +
1&
b110 '
#2178
0&
#2188
b111 +
1&
b111 '
#2189
0&
#2199
b1000 +
1&
b1000 '
#2200
0&
#2210
b1001 +
1&
b1001 '
#2211
0&
#2221
b1010 +
1&
b1010 '
#2222
0&
#2232
b1011 +
1&
b1011 '
#2233
0&
#2243
b1100 +
1&
b1100 '
#2244
0&
#2254
b1101 +
1&
b1101 '
#2255
0&
#2265
b1110 +
1&
b1110 '
#2266
0&
#2276
b1111 +
1&
b1111 '
#2277
0&
#2287
b10 -
b0 +
1&
b0 '
#2288
b1101 %
x$
0&
#2298
0"
b1 +
1&
b1 '
#2299
0&
#2309
b10 +
1&
b10 '
#2310
0&
#2320
b11 +
1&
b11 '
#2321
0&
#2331
b1011101x #
b1011101x ,
b100 +
1&
b100 '
#2332
0&
#2342
b101 +
1&
b101 '
#2343
0&
#2353
b110 +
1&
b110 '
#2354
0&
#2364
b111 +
1&
b111 '
#2365
0&
#2375
b1000 +
1&
b1000 '
#2376
0&
#2386
b1001 +
1&
b1001 '
#2387
0&
#2397
b1 *
b1010 +
1&
b1010 '
#2398
0&
#2408
b1011 +
1&
b1011 '
#2409
0&
#2419
b1100 +
1&
b1100 '
#2420
0&
#2430
b1101 +
1&
b1101 '
#2431
0&
#2441
b1110 +
1&
b1110 '
#2442
0&
#2452
b1111 +
1&
b1111 '
#2453
0&
#2463
b0 +
1&
b0 '
#2464
b1110 %
0&
#2474
b1 +
1&
b1 '
#2475
0&
#2485
b10 +
1&
b10 '
#2486
0&
#2496
b11 +
1&
b11 '
#2497
0&
#2507
b101110xx #
b101110xx ,
b100 +
1&
b100 '
#2508
0&
#2518
b101 +
1&
b101 '
#2519
0&
#2529
b110 +
1&
b110 '
#2530
0&
#2540
b111 +
1&
b111 '
#2541
0&
#2551
b1000 +
1&
b1000 '
#2552
0&
#2562
b1001 +
1&
b1001 '
#2563
0&
#2573
b10 *
b1010 +
1&
b1010 '
#2574
0&
#2584
b1011 +
1&
b1011 '
#2585
0&
#2595
b1100 +
1&
b1100 '
#2596
0&
#2606
b1101 +
1&
b1101 '
#2607
0&
#2617
b1110 +
1&
b1110 '
#2618
0&
#2628
b1111 +
1&
b1111 '
#2629
0&
#2639
b0 +
1&
b0 '
#2640
b1111 %
0&
#2650
b1 +
1&
b1 '
#2651
0&
#2661
b10 +
1&
b10 '
#2662
0&
#2672
b11 +
1&
b11 '
#2673
0&
#2683
b10111xxx #
b10111xxx ,
b100 +
1&
b100 '
#2684
0&
#2694
b101 +
1&
b101 '
#2695
0&
#2705
b110 +
1&
b110 '
#2706
0&
#2716
b111 +
1&
b111 '
#2717
0&
#2727
b1000 +
1&
b1000 '
#2728
0&
#2738
b1001 +
1&
b1001 '
#2739
0&
#2749
b11 *
b1010 +
1&
b1010 '
#2750
0&
#2760
b1011 +
1&
b1011 '
#2761
0&
#2771
b1100 +
1&
b1100 '
#2772
0&
#2782
b1101 +
1&
b1101 '
#2783
0&
#2793
b1110 +
1&
b1110 '
#2794
0&
#2804
b1111 +
1&
b1111 '
#2805
0&
#2815
b0 +
1&
b0 '
#2816
b0 %
0&
#2826
b1 +
1&
b1 '
#2827
0&
#2837
b10 +
1&
b10 '
#2838
0&
#2848
b11 +
1&
b11 '
#2849
0&
#2859
b1011xxxx #
b1011xxxx ,
b100 +
1&
b100 '
#2860
0&
#2870
b101 +
1&
b101 '
#2871
0&
#2881
b110 +
1&
b110 '
#2882
0&
#2892
b111 +
1&
b111 '
#2893
0&
#2903
b1000 +
1&
b1000 '
#2904
0&
#2914
b1001 +
1&
b1001 '
#2915
0&
#2925
b100 *
b1010 +
1&
b1010 '
#2926
0&
#2936
b1011 +
1&
b1011 '
#2937
0&
#2947
b1100 +
1&
b1100 '
#2948
0&
#2958
b1101 +
1&
b1101 '
#2959
0&
#2969
b1110 +
1&
b1110 '
#2970
0&
#2980
b1111 +
1&
b1111 '
#2981
0&
#2991
b0 +
1&
b0 '
#2992
b1 %
1$
0&
#3002
b1 +
1&
b1 '
#3003
0&
#3013
b10 +
1&
b10 '
#3014
0&
#3024
b11 +
1&
b11 '
#3025
0&
#3035
b100 +
1&
b100 '
#3036
0&
#3046
b101 +
1&
b101 '
#3047
0&
#3057
b110 +
1&
b110 '
#3058
0&
#3068
b111 +
1&
b111 '
#3069
0&
#3079
b1000 +
1&
b1000 '
#3080
0&
#3090
b1001 +
1&
b1001 '
#3091
0&
#3101
b101 *
b1010 +
1&
b1010 '
#3102
0&
#3112
b1011 +
1&
b1011 '
#3113
0&
#3123
b1100 +
1&
b1100 '
#3124
0&
#3134
b1101 +
1&
b1101 '
#3135
0&
#3145
b1110 +
1&
b1110 '
#3146
0&
#3156
b1111 +
1&
b1111 '
#3157
0&
#3167
b0 +
1&
b0 '
#3168
b10 %
0$
0&
#3178
b1 +
1&
b1 '
#3179
0&
#3189
b10 +
1&
b10 '
#3190
0&
#3200
b11 +
1&
b11 '
#3201
0&
#3211
b1001xxxx #
b1001xxxx ,
b100 +
1&
b100 '
#3212
0&
#3222
b101 +
1&
b101 '
#3223
0&
#3233
b110 +
1&
b110 '
#3234
0&
#3244
b111 +
1&
b111 '
#3245
0&
#3255
b1000 +
1&
b1000 '
#3256
0&
#3266
b1001 +
1&
b1001 '
#3267
0&
#3277
b110 *
b1010 +
1&
b1010 '
#3278
0&
#3288
b1011 +
1&
b1011 '
#3289
0&
#3299
b1100 +
1&
b1100 '
#3300
0&
#3310
b1101 +
1&
b1101 '
#3311
0&
#3321
b1110 +
1&
b1110 '
#3322
0&
#3332
b1111 +
1&
b1111 '
#3333
0&
#3343
b0 +
1&
b0 '
#3344
b11 %
0&
#3354
b1 +
1&
b1 '
#3355
0&
#3365
b10 +
1&
b10 '
#3366
0&
#3376
b11 +
1&
b11 '
#3377
0&
#3387
b100 +
1&
b100 '
#3388
0&
#3398
b101 +
1&
b101 '
#3399
0&
#3409
b110 +
1&
b110 '
#3410
0&
#3420
b111 +
1&
b111 '
#3421
0&
#3431
b1000 +
1&
b1000 '
#3432
0&
#3442
b1001 +
1&
b1001 '
#3443
0&
#3453
b111 *
b1010 +
1&
b1010 '
#3454
0&
#3464
b1011 +
1&
b1011 '
#3465
0&
#3475
b1100 +
1&
b1100 '
#3476
0&
#3486
b1101 +
1&
b1101 '
#3487
0&
#3497
b1110 +
1&
b1110 '
#3498
0&
#3508
b1111 +
1&
b1111 '
#3509
0&
#3519
b0 +
1&
b0 '
#3520
b100 %
1$
0&
#3530
b1 +
1&
b1 '
#3531
0&
#3541
b10 +
1&
b10 '
#3542
0&
#3552
b11 +
1&
b11 '
#3553
0&
#3563
b100 +
1&
b100 '
#3564
0&
#3574
b101 +
1&
b101 '
#3575
0&
#3585
b110 +
1&
b110 '
#3586
0&
#3596
b111 +
1&
b111 '
#3597
0&
#3607
b1000 +
1&
b1000 '
#3608
0&
#3618
b1001 +
1&
b1001 '
#3619
0&
#3629
b11 -
b1010 +
1&
b1010 '
#3630
0&
#3640
b1011 +
1&
b1011 '
#3641
0&
#3651
b1100 +
1&
b1100 '
#3652
0&
#3662
b1101 +
1&
b1101 '
#3663
0&
#3673
b1110 +
1&
b1110 '
#3674
0&
#3684
b1111 +
1&
b1111 '
#3685
0&
#3695
b0 +
1&
b0 '
#3696
b101 %
0$
0&
#3706
b1 +
1&
b1 '
#3707
0&
#3717
b10 +
1&
b10 '
#3718
0&
#3728
b11 +
1&
b11 '
#3729
0&
#3739
b100 +
1&
b100 '
#3740
0&
#3750
b101 +
1&
b101 '
#3751
0&
#3761
b110 +
1&
b110 '
#3762
0&
#3772
b111 +
1&
b111 '
#3773
0&
#3783
b1000 +
1&
b1000 '
#3784
0&
#3794
b1001 +
1&
b1001 '
#3795
0&
#3805
b1010 +
1&
b1010 '
#3806
0&
#3816
b1011 +
1&
b1011 '
#3817
0&
#3827
b1100 +
1&
b1100 '
#3828
0&
#3838
b1101 +
1&
b1101 '
#3839
0&
#3849
b1110 +
1&
b1110 '
#3850
0&
#3860
b1111 +
1&
b1111 '
#3861
0&
#3871
b0 +
1&
b0 '
#3872
b110 %
1$
0&
#3882
b1 +
1&
b1 '
#3883
0&
#3893
b10 +
1&
b10 '
#3894
0&
#3904
b11 +
1&
b11 '
#3905
0&
#3915
b0 -
1"
b100 +
1&
b100 '
#3916
0&
#3926
b0 +
1&
b101 '
#3927
0&
#3937
b0 +
1&
b110 '
#3938
0&
#3948
b0 +
1&
b111 '
#3949
0&
#3959
b0 +
1&
b1000 '
#3960
0&
#3970
b0 +
1&
b1001 '
#3971
0&
#3981
b0 +
1&
b1010 '
#3982
0&
#3992
b0 +
1&
b1011 '
#3993
0&
#4003
b0 +
1&
b1100 '
#4004
0&
#4014
b0 +
1&
b1101 '
#4015
0&
#4025
b0 +
1&
b1110 '
#4026
0&
#4036
b0 +
1&
b1111 '
#4037
0&
#4047
b0 +
1&
b0 '
#4048
b111 %
0&
#4058
b0 +
1&
b1 '
#4059
0&
#4069
b0 +
1&
b10 '
#4070
0&
#4080
b0 +
1&
b11 '
#4081
0&
#4091
b0 +
1&
b100 '
#4092
0&
#4102
b0 +
1&
b101 '
#4103
0&
#4113
b0 +
1&
b110 '
#4114
0&
#4124
b0 +
1&
b111 '
#4125
0&
#4135
b0 +
1&
b1000 '
#4136
0&
#4146
b0 +
1&
b1001 '
#4147
0&
#4157
b0 +
1&
b1010 '
#4158
0&
#4168
b0 +
1&
b1011 '
#4169
0&
#4179
b0 +
1&
b1100 '
#4180
0&
#4190
b0 +
1&
b1101 '
#4191
0&
#4201
b0 +
1&
b1110 '
#4202
0&
#4212
b0 +
1&
b1111 '
#4213
0&
#4223
b0 +
1&
b0 '
#4224
b1000 %
0&
#4234
b0 +
1&
b1 '
#4235
0&
#4245
b0 +
1&
b10 '
#4246
0&
#4256
b0 +
1&
b11 '
#4257
0&
#4267
b0 +
1&
b100 '
#4268
0&
#4278
b0 +
1&
b101 '
#4279
0&
#4289
b0 +
1&
b110 '
#4290
0&
#4300
b0 +
1&
b111 '
#4301
0&
#4311
b0 +
1&
b1000 '
#4312
0&
#4322
b0 +
1&
b1001 '
#4323
0&
#4333
b0 +
1&
b1010 '
#4334
0&
#4344
b0 +
1&
b1011 '
#4345
0&
#4355
b0 +
1&
b1100 '
#4356
0&
#4366
b0 +
1&
b1101 '
#4367
0&
#4377
b0 +
1&
b1110 '
#4378
0&
#4388
b0 +
1&
b1111 '
#4389
0&
#4399
b0 +
1&
b0 '
#4400
b1001 %
0$
0&
#4410
b1 -
b0 *
b1 +
1&
b1 '
#4411
0&
#4421
b10 +
1&
b10 '
#4422
0&
#4432
b11 +
1&
b11 '
#4433
0&
#4443
b100 +
1&
b100 '
#4444
0&
#4454
b101 +
1&
b101 '
#4455
0&
#4465
b110 +
1&
b110 '
#4466
0&
#4476
b111 +
1&
b111 '
#4477
0&
#4487
b1000 +
1&
b1000 '
#4488
0&
#4498
b1001 +
1&
b1001 '
#4499
0&
#4509
b1010 +
1&
b1010 '
#4510
0&
#4520
b1011 +
1&
b1011 '
#4521
0&
#4531
b1100 +
1&
b1100 '
#4532
0&
#4542
b1101 +
1&
b1101 '
#4543
0&
#4553
b1110 +
1&
b1110 '
#4554
0&
#4564
b1111 +
1&
b1111 '
#4565
0&
#4575
b10 -
b0 +
1&
b0 '
#4576
b1010 %
1$
0&
#4586
0"
b1 +
1&
b1 '
#4587
0&
#4597
b10 +
1&
b10 '
#4598
0&
#4608
b11 +
1&
b11 '
#4609
0&
#4619
b1001xxx1 #
b1001xxx1 ,
b100 +
1&
b100 '
#4620
0&
#4630
b101 +
1&
b101 '
#4631
0&
#4641
b110 +
1&
b110 '
#4642
0&
#4652
b111 +
1&
b111 '
#4653
0&
#4663
b1000 +
1&
b1000 '
#4664
0&
#4674
b1001 +
1&
b1001 '
#4675
0&
#4685
b1 *
b1010 +
1&
b1010 '
#4686
0&
#4696
b1011 +
1&
b1011 '
#4697
0&
#4707
b1100 +
1&
b1100 '
#4708
0&
#4718
b1101 +
1&
b1101 '
#4719
0&
#4729
b1110 +
1&
b1110 '
#4730
0&
#4740
b1111 +
1&
b1111 '
#4741
0&
#4751
b0 +
1&
b0 '
#4752
b1011 %
0&
#4762
b1 +
1&
b1 '
#4763
0&
#4773
b10 +
1&
b10 '
#4774
0&
#4784
b11 +
1&
b11 '
#4785
0&
#4795
b1001xx11 #
b1001xx11 ,
b100 +
1&
b100 '
#4796
0&
#4806
b101 +
1&
b101 '
#4807
0&
#4817
b110 +
1&
b110 '
#4818
0&
#4828
b111 +
1&
b111 '
#4829
0&
#4839
b1000 +
1&
b1000 '
#4840
0&
#4850
b1001 +
1&
b1001 '
#4851
0&
#4861
b10 *
b1010 +
1&
b1010 '
#4862
0&
#4872
b1011 +
1&
b1011 '
#4873
0&
#4883
b1100 +
1&
b1100 '
#4884
0&
#4894
b1101 +
1&
b1101 '
#4895
0&
#4905
b1110 +
1&
b1110 '
#4906
0&
#4916
b1111 +
1&
b1111 '
#4917
0&
#4927
b0 +
1&
b0 '
#4928
b1100 %
0$
0&
#4938
b1 +
1&
b1 '
#4939
0&
#4949
b10 +
1&
b10 '
#4950
0&
#4960
b11 +
1&
b11 '
#4961
0&
#4971
b1001x011 #
b1001x011 ,
b100 +
1&
b100 '
#4972
0&
#4982
b101 +
1&
b101 '
#4983
0&
#4993
b110 +
1&
b110 '
#4994
0&
#5004
b111 +
1&
b111 '
#5005
0&
#5015
b1000 +
1&
b1000 '
#5016
0&
#5026
b1001 +
1&
b1001 '
#5027
0&
#5037
b11 *
b1010 +
1&
b1010 '
#5038
0&
#5048
b1011 +
1&
b1011 '
#5049
0&
#5059
b1100 +
1&
b1100 '
#5060
0&
#5070
b1101 +
1&
b1101 '
#5071
0&
#5081
b1110 +
1&
b1110 '
#5082
0&
#5092
b1111 +
1&
b1111 '
#5093
0&
#5103
b0 +
1&
b0 '
#5104
b1101 %
x$
0&
#5114
b1 +
1&
b1 '
#5115
0&
#5125
b10 +
1&
b10 '
#5126
0&
#5136
b11 +
1&
b11 '
#5137
0&
#5147
b100 +
1&
b100 '
#5148
0&
#5158
b101 +
1&
b101 '
#5159
0&
#5169
b110 +
1&
b110 '
#5170
0&
#5180
b111 +
1&
b111 '
#5181
0&
#5191
b1000 +
1&
b1000 '
#5192
0&
#5202
b1001 +
1&
b1001 '
#5203
0&
#5213
b100 *
b1010 +
1&
b1010 '
#5214
0&
#5224
b1011 +
1&
b1011 '
#5225
0&
#5235
b1100 +
1&
b1100 '
#5236
0&
#5246
b1101 +
1&
b1101 '
#5247
0&
#5257
b1110 +
1&
b1110 '
#5258
0&
#5268
b1111 +
1&
b1111 '
#5269
0&
#5279
b0 +
1&
b0 '
#5280
b1110 %
0&
#5290
b1 +
1&
b1 '
#5291
0&
#5301
b10 +
1&
b10 '
#5302
0&
#5312
b11 +
1&
b11 '
#5313
0&
#5323
b100xx011 #
b100xx011 ,
b100 +
1&
b100 '
#5324
0&
#5334
b101 +
1&
b101 '
#5335
0&
#5345
b110 +
1&
b110 '
#5346
0&
#5356
b111 +
1&
b111 '
#5357
0&
#5367
b1000 +
1&
b1000 '
#5368
0&
#5378
b1001 +
1&
b1001 '
#5379
0&
#5389
b101 *
b1010 +
1&
b1010 '
#5390
0&
#5400
b1011 +
1&
b1011 '
#5401
0&
#5411
b1100 +
1&
b1100 '
#5412
0&
#5422
b1101 +
1&
b1101 '
#5423
0&
#5433
b1110 +
1&
b1110 '
#5434
0&
#5444
b1111 +
1&
b1111 '
#5445
0&
#5455
b0 +
1&
b0 '
#5456
b1111 %
0&
#5466
b1 +
1&
b1 '
#5467
0&
#5477
b10 +
1&
b10 '
#5478
0&
#5488
b11 +
1&
b11 '
#5489
0&
#5499
b10xxx011 #
b10xxx011 ,
b100 +
1&
b100 '
#5500
0&
#5510
b101 +
1&
b101 '
#5511
0&
#5521
b110 +
1&
b110 '
#5522
0&
#5532
b111 +
1&
b111 '
#5533
0&
#5543
b1000 +
1&
b1000 '
#5544
0&
#5554
b1001 +
1&
b1001 '
#5555
0&
#5565
b110 *
b1010 +
1&
b1010 '
#5566
0&
#5576
b1011 +
1&
b1011 '
#5577
0&
#5587
b1100 +
1&
b1100 '
#5588
0&
#5598
b1101 +
1&
b1101 '
#5599
0&
#5609
b1110 +
1&
b1110 '
#5610
0&
#5620
b1111 +
1&
b1111 '
#5621
0&
#5631
b0 +
1&
b0 '
#5632
b0 %
0&
#5642
b1 +
1&
b1 '
#5643
0&
#5653
b10 +
1&
b10 '
#5654
0&
#5664
b11 +
1&
b11 '
#5665
0&
#5675
b1xxxx011 #
b1xxxx011 ,
b100 +
1&
b100 '
#5676
0&
#5686
b101 +
1&
b101 '
#5687
0&
#5697
b110 +
1&
b110 '
#5698
0&
#5708
b111 +
1&
b111 '
#5709
0&
#5719
b1000 +
1&
b1000 '
#5720
0&
#5730
b1001 +
1&
b1001 '
#5731
0&
#5741
b111 *
b1010 +
1&
b1010 '
#5742
0&
#5752
b1011 +
1&
b1011 '
#5753
0&
#5763
b1100 +
1&
b1100 '
#5764
0&
#5774
b1101 +
1&
b1101 '
#5775
0&
#5785
b1110 +
1&
b1110 '
#5786
0&
#5796
b1111 +
1&
b1111 '
#5797
0&
#5807
b0 +
1&
b0 '
#5808
b1 %
1$
0&
#5818
b1 +
1&
b1 '
#5819
0&
#5829
b10 +
1&
b10 '
#5830
0&
#5840
b11 +
1&
b11 '
#5841
0&
#5851
b100 +
1&
b100 '
#5852
0&
#5862
b101 +
1&
b101 '
#5863
0&
#5873
b110 +
1&
b110 '
#5874
0&
#5884
b111 +
1&
b111 '
#5885
0&
#5895
b1000 +
1&
b1000 '
#5896
0&
#5906
b1001 +
1&
b1001 '
#5907
0&
#5917
b11 -
b1010 +
1&
b1010 '
#5918
0&
#5928
b1011 +
1&
b1011 '
#5929
0&
#5939
b1100 +
1&
b1100 '
#5940
0&
#5950
b1101 +
1&
b1101 '
#5951
0&
#5961
b1110 +
1&
b1110 '
#5962
0&
#5972
b1111 +
1&
b1111 '
#5973
0&
#5983
b0 +
1&
b0 '
#5984
b10 %
0$
0&
#5994
b1 +
1&
b1 '
#5995
0&
#6005
b10 +
1&
b10 '
#6006
0&
#6016
b11 +
1&
b11 '
#6017
0&
#6027
b100 +
1&
b100 '
#6028
0&
#6038
b101 +
1&
b101 '
#6039
0&
#6049
b110 +
1&
b110 '
#6050
0&
#6060
b111 +
1&
b111 '
#6061
0&
#6071
b1000 +
1&
b1000 '
#6072
0&
#6082
b1001 +
1&
b1001 '
#6083
0&
#6093
b1010 +
1&
b1010 '
#6094
0&
#6104
b1011 +
1&
b1011 '
#6105
0&
#6115
b1100 +
1&
b1100 '
#6116
0&
#6126
b1101 +
1&
b1101 '
#6127
0&
#6137
b1110 +
1&
b1110 '
#6138
0&
#6148
b1111 +
1&
b1111 '
#6149
0&
#6159
b0 +
1&
b0 '
#6160
b11 %
0&
#6170
b1 +
1&
b1 '
#6171
0&
#6181
b10 +
1&
b10 '
