tests/dump_project.vcd
$date
	Wed Jun  6 10:16:41 2018
$end
$version
	Icarus Verilog
$end
$timescale
	1ps
$end
$scope module project_test $end
$var wire 4 ! dig [3:0] $end
$var wire 4 " led [3:0] $end
$var wire 1 # reset $end
$var wire 1 $ rx $end
$var wire 8 % seg [7:0] $end
$var wire 1 & tx $end
$var reg 4 ' bt [3:0] $end
$var reg 1 ( clk $end
$var integer 32 ) i [31:0] $end
$scope module project1 $end
$var wire 1 * baud $end
$var wire 1 + baud_tx $end
$var wire 4 , bt [3:0] $end
$var wire 1 - clk $end
$var wire 16 . cpu_to_memory [15:0] $end
$var wire 8 / data_to_send [7:0] $end
$var wire 4 0 dig [3:0] $end
$var wire 4 1 in [3:0] $end
$var wire 16 2 in1 [15:0] $end
$var wire 4 3 led [3:0] $end
$var wire 16 4 memory_addr [15:0] $end
$var wire 16 5 memory_to_cpu [15:0] $end
$var wire 16 6 memory_write [15:0] $end
$var wire 16 7 out1 [15:0] $end
$var wire 16 8 out2 [15:0] $end
$var wire 37 9 presc [36:0] $end
$var wire 8 : received_data [7:0] $end
$var wire 1 ; reset $end
$var wire 1 # reset_bt $end
$var wire 1 $ rx $end
$var wire 8 < seg [7:0] $end
$var wire 1 & tx $end
$var wire 1 = uart_new_data $end
$var wire 1 > uart_send $end
$var wire 1 ? uart_sending $end
$scope module cpu $end
$var wire 2 @ ALU_in2_mux [1:0] $end
$var wire 1 A ALU_out_write $end
$var wire 1 B IR_write $end
$var wire 2 C PC_mux [1:0] $end
$var wire 1 D PC_write $end
$var wire 1 - clk $end
$var wire 2 E data_in_mux [1:0] $end
$var wire 1 F mem_out_mux $end
$var wire 16 G memory_addr [15:0] $end
$var wire 2 H memory_addr_mux [1:0] $end
$var wire 16 I memory_in [15:0] $end
$var wire 16 J memory_out [15:0] $end
$var wire 1 K memory_write $end
$var wire 5 L opcode [4:0] $end
$var wire 1 M reg_buff1_write $end
$var wire 1 N reg_buff2_write $end
$var wire 1 O reg_write $end
$var wire 1 ; reset $end
$var wire 16 P status_reg [15:0] $end
$var wire 1 Q status_reg_write $end
$scope module control_unit $end
$var wire 1 - clk $end
$var wire 5 R opcode [4:0] $end
$var wire 1 ; reset $end
$var wire 16 S status_reg [15:0] $end
$var reg 2 T ALU_in2_mux [1:0] $end
$var reg 1 U ALU_out_write $end
$var reg 1 V IR_write $end
$var reg 2 W PC_mux [1:0] $end
$var reg 1 X PC_write $end
$var reg 2 Y data_in_mux [1:0] $end
$var reg 1 Z mem_out_mux $end
$var reg 2 [ memory_addr_mux [1:0] $end
$var reg 1 \ memory_write $end
$var reg 1 ] reg_buff1_write $end
$var reg 1 ^ reg_buff2_write $end
$var reg 1 _ reg_write $end
$var reg 3 ` stage [2:0] $end
$var reg 1 a status_reg_write $end
$scope function alu_op $end
$var reg 1 b alu_op $end
$var reg 5 c op [4:0] $end
$upscope $end
$scope function cancel_branch $end
$var reg 1 d cancel_branch $end
$var reg 2 e cond [1:0] $end
$var reg 5 f op [4:0] $end
$upscope $end
$scope function cmp_op $end
$var reg 1 g cmp_op $end
$var reg 5 h op [4:0] $end
$upscope $end
$scope function load_op $end
$var reg 1 i load_op $end
$var reg 5 j op [4:0] $end
$upscope $end
$scope function store_op $end
$var reg 5 k op [4:0] $end
$var reg 1 l store_op $end
$upscope $end
$scope function type $end
$var reg 5 m op [4:0] $end
$var reg 3 n type [2:0] $end
$upscope $end
$scope function write_reg_file $end
$var reg 5 o op [4:0] $end
$var reg 1 p write_reg_file $end
$upscope $end
$scope task disable_write_signals $end
$upscope $end
$scope task zero_muxes $end
$upscope $end
$upscope $end
$scope module datapath $end
$var wire 16 q ALU_flags [15:0] $end
$var wire 16 r ALU_in2 [15:0] $end
$var wire 2 s ALU_in2_mux [1:0] $end
$var wire 3 t ALU_op [2:0] $end
$var wire 16 u ALU_out [15:0] $end
$var wire 1 A ALU_out_write $end
$var wire 1 B IR_write $end
$var wire 16 v PC_in_wire [15:0] $end
$var wire 2 w PC_mux [1:0] $end
$var wire 1 D PC_write $end
$var wire 1 - clk $end
$var wire 16 x data_in [15:0] $end
$var wire 2 y data_in_mux [1:0] $end
$var wire 11 z imm1 [10:0] $end
$var wire 8 { imm2 [7:0] $end
$var wire 5 | imm3 [4:0] $end
$var wire 1 F mem_out_mux $end
$var wire 16 } memory_addr [15:0] $end
$var wire 2 ~ memory_addr_mux [1:0] $end
$var wire 16 !" memory_in [15:0] $end
$var wire 16 "" memory_out [15:0] $end
$var wire 5 #" opcode [4:0] $end
$var wire 3 $" reg_addr1 [2:0] $end
$var wire 3 %" reg_addr2 [2:0] $end
$var wire 3 &" reg_addr_in [2:0] $end
$var wire 16 '" reg_buff1 [15:0] $end
$var wire 1 M reg_buff1_write $end
$var wire 16 (" reg_buff2 [15:0] $end
$var wire 1 N reg_buff2_write $end
$var wire 1 O reg_write $end
$var wire 1 Q status_reg_write $end
$var reg 16 )" ALU_out_buff [15:0] $end
$var reg 16 *" PC [15:0] $end
$var reg 16 +" inst_reg [15:0] $end
$var reg 16 ," status_reg [15:0] $end
$scope module reg_file_mux $end
$var wire 16 -" in0 [15:0] $end
$var wire 16 ." in1 [15:0] $end
$var wire 16 /" in2 [15:0] $end
$var wire 16 0" in3 [15:0] $end
$var wire 2 1" select [1:0] $end
$var reg 16 2" out [15:0] $end
$upscope $end
$scope module registers $end
$var wire 3 3" addr1 [2:0] $end
$var wire 3 4" addr2 [2:0] $end
$var wire 3 5" addr_in [2:0] $end
$var wire 1 - clk $end
$var wire 16 6" data_in [15:0] $end
$var wire 1 O write $end
$var wire 1 M write_buff1 $end
$var wire 1 N write_buff2 $end
$var reg 16 7" reg_buff1 [15:0] $end
$var reg 16 8" reg_buff2 [15:0] $end
$upscope $end
$scope module alu $end
$var wire 16 9" flags [15:0] $end
$var wire 16 :" in_a [15:0] $end
$var wire 16 ;" in_b [15:0] $end
$var wire 3 <" op [2:0] $end
$var reg 16 =" out [15:0] $end
$upscope $end
$scope module ALU_mux $end
$var wire 16 >" in0 [15:0] $end
$var wire 16 ?" in1 [15:0] $end
$var wire 16 @" in2 [15:0] $end
$var wire 16 A" in3 [15:0] $end
$var wire 2 B" select [1:0] $end
$var reg 16 C" out [15:0] $end
$upscope $end
$scope module ir_decode $end
$var wire 3 D" alu_op [2:0] $end
$var wire 11 E" imm1 [10:0] $end
$var wire 8 F" imm2 [7:0] $end
$var wire 5 G" imm3 [4:0] $end
$var wire 16 H" instruction_reg [15:0] $end
$var wire 5 I" opcode [4:0] $end
$var wire 3 J" ra [2:0] $end
$var wire 3 K" rb [2:0] $end
$var wire 3 L" rc [2:0] $end
$var wire 3 M" reg_addr1 [2:0] $end
$var wire 3 N" reg_addr_in [2:0] $end
$var reg 3 O" reg_addr2 [2:0] $end
$upscope $end
$scope module PC_mux2 $end
$var wire 16 P" in0 [15:0] $end
$var wire 16 Q" in1 [15:0] $end
$var wire 16 R" in2 [15:0] $end
$var wire 16 S" in3 [15:0] $end
$var wire 2 T" select [1:0] $end
$var reg 16 U" out [15:0] $end
$upscope $end
$scope module Memory_mux2 $end
$var wire 16 V" in0 [15:0] $end
$var wire 16 W" in1 [15:0] $end
$var wire 16 X" in2 [15:0] $end
$var wire 16 Y" in3 [15:0] $end
$var wire 2 Z" select [1:0] $end
$var reg 16 [" out [15:0] $end
$upscope $end
$upscope $end
$upscope $end
$scope module mem $end
$var wire 16 \" addr [15:0] $end
$var wire 1 - clk $end
$var wire 16 ]" data_in [15:0] $end
$var wire 16 ^" data_out [15:0] $end
$var wire 16 _" in1 [15:0] $end
$var wire 8 `" in_uart [7:0] $end
$var wire 16 a" out1 [15:0] $end
$var wire 16 b" out2 [15:0] $end
$var wire 8 c" out_uart [7:0] $end
$var wire 1 > send_uart $end
$var wire 1 = uart_new_data $end
$var wire 1 d" write $end
$var integer 32 e" i [31:0] $end
$var reg 1 f" uart_new_data_prev $end
$upscope $end
$scope module baud_gen $end
$var wire 1 - clk $end
$var reg 1 g" baud $end
$var reg 1 h" baud_tx $end
$var reg 5 i" count [4:0] $end
$var reg 9 j" count_tx [8:0] $end
$upscope $end
$scope module uart_rx $end
$var wire 1 * clk $end
$var wire 1 ; reset $end
$var wire 1 $ rx $end
$var reg 3 k" bit [2:0] $end
$var reg 4 l" counter [3:0] $end
$var reg 8 m" data [7:0] $end
$var reg 1 n" ready $end
$var reg 2 o" state [1:0] $end
$upscope $end
$scope module uart_tx $end
$var wire 1 + clk $end
$var wire 8 p" data [7:0] $end
$var wire 1 > send $end
$var reg 4 q" bit [3:0] $end
$var reg 10 r" data_to_send [9:0] $end
$var reg 1 s" sending $end
$var reg 1 t" tx $end
$upscope $end
$scope module prescaler $end
$var wire 1 - in $end
$var wire 1 u" reset $end
$var reg 37 v" count [36:0] $end
$upscope $end
$scope module deb $end
$var wire 1 w" clk $end
$var wire 5 x" in [4:0] $end
$var reg 7 y" count [6:0] $end
$var reg 5 z" out [4:0] $end
$var reg 5 {" prev [4:0] $end
$upscope $end
$scope module sseg $end
$var wire 1 |" clk $end
$var wire 16 }" data [15:0] $end
$var reg 4 ~" curr_dig [3:0] $end
$var reg 4 !# dig [3:0] $end
$var reg 2 "# dig_select [1:0] $end
$var reg 8 ## seg [7:0] $end
$upscope $end
$upscope $end
$upscope $end
$scope module project_test $end
$scope module project1 $end
$scope module cpu $end
$scope module datapath $end
$scope module registers $end
$var reg 16 $# \reg_file[0] [15:0] $end
$upscope $end
$upscope $end
$upscope $end
$upscope $end
$upscope $end
$scope module project_test $end
$scope module project1 $end
$scope module cpu $end
$scope module datapath $end
$scope module registers $end
$var reg 16 %# \reg_file[1] [15:0] $end
$upscope $end
$upscope $end
$upscope $end
$upscope $end
$upscope $end
$scope module project_test $end
$scope module project1 $end
$scope module cpu $end
$scope module datapath $end
$scope module registers $end
$var reg 16 &# \reg_file[2] [15:0] $end
$upscope $end
$upscope $end
$upscope $end
$upscope $end
$upscope $end
$scope module project_test $end
$scope module project1 $end
$scope module cpu $end
$scope module datapath $end
$scope module registers $end
$var reg 16 '# \reg_file[3] [15:0] $end
$upscope $end
$upscope $end
$upscope $end
$upscope $end
$upscope $end
$scope module project_test $end
$scope module project1 $end
$scope module cpu $end
$scope module datapath $end
$scope module registers $end
$var reg 16 (# \reg_file[4] [15:0] $end
$upscope $end
$upscope $end
$upscope $end
$upscope $end
$upscope $end
$scope module project_test $end
$scope module project1 $end
$scope module cpu $end
$scope module datapath $end
$scope module registers $end
$var reg 16 )# \reg_file[5] [15:0] $end
$upscope $end
$upscope $end
$upscope $end
$upscope $end
$upscope $end
$scope module project_test $end
$scope module project1 $end
$scope module cpu $end
$scope module datapath $end
$scope module registers $end
$var reg 16 *# \reg_file[6] [15:0] $end
$upscope $end
$upscope $end
$upscope $end
$upscope $end
$upscope $end
$scope module project_test $end
$scope module project1 $end
$scope module cpu $end
$scope module datapath $end
$scope module registers $end
$var reg 16 +# \reg_file[7] [15:0] $end
$upscope $end
$upscope $end
$upscope $end
$upscope $end
$upscope $end
$enddefinitions $end
#0
$dumpvars
bx +#
bx *#
bx )#
bx (#
bx '#
bx &#
bx %#
bx $#
bx ##
b0 "#
bx !#
bx ~"
b0 }"
0|"
bx {"
bx z"
bx y"
bzxxxx x"
0w"
b0 v"
0u"
xt"
xs"
bx r"
bx q"
bz p"
bx o"
xn"
bx m"
bx l"
bx k"
b0 j"
b0 i"
xh"
xg"
xf"
b111100 e"
0d"
bz c"
b0 b"
b0 a"
bx `"
b101 _"
b1111100110100110 ^"
bx ]"
b0 \"
b0 ["
b0 Z"
bx Y"
b0xxxxxxxx X"
bx W"
b0 V"
b1 U"
b0 T"
b0 S"
bx R"
b0xxxxxxxxxxx Q"
b1 P"
bx O"
bx N"
bx M"
bx L"
bx K"
bx J"
bx I"
bx H"
bx G"
bx F"
bx E"
bx D"
bx C"
b0 B"
b0 A"
b0xxxxxxxx @"
b0xxxxx ?"
bx >"
bx ="
bx <"
bx ;"
bx :"
b0xxx 9"
bx 8"
bx 7"
bx 6"
bx 5"
bx 4"
bx 3"
bx 2"
b0 1"
b0 0"
b0xxxxxxxx /"
b1111100110100110 ."
bx -"
bx ,"
bx +"
b0 *"
bx )"
bx ("
bx '"
bx &"
bx %"
bx $"
bx #"
bx ""
b1111100110100110 !"
b0 ~
b0 }
bx |
bx {
bx z
b0 y
bx x
b0 w
b1 v
bx u
bx t
b0 s
bx r
b0xxx q
xp
bx o
bx n
bx m
xl
bx k
bx j
xi
bx h
xg
bx f
bx e
xd
bx c
xb
0a
b0 `
0_
0^
0]
0\
b0 [
0Z
b0 Y
1X
b0 W
1V
0U
b0 T
bx S
bx R
0Q
bx P
0O
0N
0M
bx L
0K
bx J
b1111100110100110 I
b0 H
b0 G
0F
b0 E
1D
b0 C
1B
0A
b0 @
x?
z>
x=
bx <
x;
bx :
b0 9
b0 8
b0 7
b0 6
b1111100110100110 5
b0 4
b1111 3
b101 2
bx 1
bx 0
bz /
bx .
0-
bx ,
x+
x*
b1000 )
0(
bx '
x&
bx %
z$
z#
b1111 "
bx !
$end
#20000
b111 t
b111 <"
b111 D"
b100 $"
b100 3"
b100 M"
b110 &"
b110 5"
b110 N"
b110 O"
b110 %"
b110 4"
0g
b11111 h
b11111 m
0b
b11111 c
b10 U"
b10 v
b110 J"
b100 K"
b110 L"
b110100110 Q"
b110100110 z
b110100110 E"
b110100 X"
b110100 @"
b110100 /"
b110100 {
b110100 F"
b110 ?"
b110 |
b110 G"
b11111 L
b11111 R
b11111 #"
b11111 I"
b10 P"
b1 ["
b1110100111001000 5
b1110100111001000 I
b1110100111001000 !"
b1110100111001000 ."
b1110100111001000 ^"
b1 4
b1 G
b1 }
b1 \"
0^
0N
0]
0M
b11 n
0X
0D
0V
0B
b1111100110100110 +"
b1111100110100110 H"
b1 *"
b1 0"
b1 V"
b1 `
b1 v"
b1 9
b1 i"
0g"
0*
b1 j"
0h"
0+
1(
1-
#40000
0(
0-
#60000
b110100 2"
b110100 x
b110100 6"
1_
1O
b10 Y
b10 E
b10 y
b10 1"
1p
b11111 o
b100 `
b10 v"
b10 9
b10 j"
b10 i"
0d
b11111 f
1(
1-
#80000
0(
0-
#100000
bx 2"
bx x
bx 6"
1X
1D
1V
1B
b0 Y
b0 E
b0 y
b0 1"
0_
0O
b0 `
b11 v"
b11 9
b110100 *#
b11 i"
b11 j"
1(
1-
#120000
0(
0-
#140000
b101 t
b101 <"
b101 D"
b0 &"
b0 5"
b0 N"
b1 $"
b1 3"
b1 M"
b11 U"
b11 v
b111 O"
b111 %"
b111 4"
b11101 h
b11101 m
b11101 c
b11 P"
b10 ["
b1111000111010000 5
b1111000111010000 I
b1111000111010000 !"
b1111000111010000 ."
b1111000111010000 ^"
b10 4
b10 G
b10 }
b10 \"
b0 J"
b1 K"
b111 L"
b111001000 Q"
b111001000 z
b111001000 E"
b111001 X"
b111001 @"
b111001 /"
b111001 {
b111001 F"
b111 ?"
b111 |
b111 G"
b11101 L
b11101 R
b11101 #"
b11101 I"
0X
0D
0V
0B
b10 *"
b10 0"
b10 V"
b1110100111001000 +"
b1110100111001000 H"
b1 `
b100 v"
b100 9
b100 j"
b100 i"
1(
1-
#160000
0(
0-
#180000
b101 2"
b101 x
b101 6"
b111001 ["
b101 5
b101 I
b101 !"
b101 ."
b101 ^"
b111001 4
b111001 G
b111001 }
b111001 \"
1_
1O
b1 Y
b1 E
b1 y
b1 1"
b10 [
b10 H
b10 ~
b10 Z"
b11 `
b101 v"
b101 9
b101 i"
b101 j"
b11101 f
1(
1-
#200000
0(
0-
#220000
b10 ["
b1111000111010000 5
b1111000111010000 I
b1111000111010000 !"
b1111000111010000 ."
b1111000111010000 ^"
b10 4
b10 G
b10 }
b10 \"
bx 2"
bx x
bx 6"
1X
1D
1V
1B
b0 [
b0 H
b0 ~
b0 Z"
b0 Y
b0 E
b0 y
b0 1"
0_
0O
b0 `
b110 v"
b110 9
b110 j"
b110 i"
b101 $#
1(
1-
#240000
0(
0-
#260000
b110 t
b110 <"
b110 D"
b0 $"
b0 3"
b0 M"
1]
1M
b11110 h
b11110 m
b11110 c
b100 U"
b100 v
b10 K"
b111010000 Q"
b111010000 z
b111010000 E"
b111010 X"
b111010 @"
b111010 /"
b111010 {
b111010 F"
b11110 L
b11110 R
b11110 #"
b11110 I"
b100 P"
b11 ["
b1011100000000110 5
b1011100000000110 I
b1011100000000110 !"
b1011100000000110 ."
b1011100000000110 ^"
b11 4
b11 G
b11 }
b11 \"
0X
0D
0V
0B
b1111000111010000 +"
b1111000111010000 H"
b11 *"
b11 0"
b11 V"
b1 `
b111 v"
b111 9
b111 i"
b111 j"
1(
1-
#280000
0(
0-
#300000
1d"
b101 .
b101 J
b101 ""
b101 ]"
b111010 ["
b0 5
b0 I
b0 !"
b0 ."
b0 ^"
b111010 4
b111010 G
b111010 }
b111010 \"
1\
1K
b1 6
1Z
1F
b10 [
b10 H
b10 ~
b10 Z"
0]
0M
b11 `
b1000 v"
b1000 9
b1000 j"
b1000 i"
b101 7"
b101 '"
b101 :"
b101 R"
b101 W"
b11110 f
1(
1-
#320000
0(
0-
#340000
b1010 "
b1010 3
bx .
bx J
bx ""
bx ]"
b11 ["
b11 4
b11 G
b11 }
b11 \"
0d"
1X
1D
1V
1B
0Z
0F
b0 [
b0 H
b0 ~
b0 Z"
0\
0K
b0 6
b1011100000000110 5
b1011100000000110 I
b1011100000000110 !"
b1011100000000110 ."
b1011100000000110 ^"
b101 8
b101 b"
b0 `
b1001 v"
b1001 9
b1001 i"
b1001 j"
1(
1-
#360000
0(
0-
#380000
b111 t
b111 <"
b111 D"
b0 $"
b0 3"
b0 M"
b101 U"
b101 v
b111 &"
b111 5"
b111 N"
b0 O"
b0 %"
b0 4"
b10111 h
b100 n
b10111 m
b10111 c
b101 P"
b100 ["
b1111000111011000 5
b1111000111011000 I
b1111000111011000 !"
b1111000111011000 ."
b1111000111011000 ^"
b100 4
b100 G
b100 }
b100 \"
b110 J"
b0 K"
b0 L"
b110 Q"
b110 z
b110 E"
b0 X"
b0 @"
b0 /"
b0 {
b0 F"
b0 ?"
b0 |
b0 G"
b10111 L
b10111 R
b10111 #"
b10111 I"
0]
0M
0X
0D
0V
0B
b100 *"
b100 0"
b100 V"
b1011100000000110 +"
b1011100000000110 H"
b1 `
b1010 v"
b1010 9
b1010 j"
b1010 i"
1(
1-
#400000
0(
0-
#420000
b110 U"
b110 v
b100 2"
b100 x
b100 6"
1X
1D
b1 W
b1 C
b1 w
b1 T"
1_
1O
b11 Y
b11 E
b11 y
b11 1"
b10111 o
b100 `
b1011 v"
b1011 9
b1011 i"
b1011 j"
b10111 f
1(
1-
#440000
0(
0-
#460000
b111 U"
b111 v
b111 P"
b110 ["
b1110000000010000 5
b1110000000010000 I
b1110000000010000 !"
b1110000000010000 ."
b1110000000010000 ^"
b110 4
b110 G
b110 }
b110 \"
bx 2"
bx x
bx 6"
1V
1B
b0 W
b0 C
b0 w
b0 T"
b0 Y
b0 E
b0 y
b0 1"
0_
0O
1X
1D
b110 *"
b110 0"
b110 V"
b0 `
b1100 v"
b1100 9
b1100 j"
b1100 i"
b100 +#
1(
1-
#480000
0(
0-
#500000
bx1x1 ="
b0xx q
b0xx 9"
bx1x1 u
b100 t
b100 <"
b100 D"
b0 &"
b0 5"
b0 N"
1]
1M
1g
b11100 h
b11 n
b11100 m
b11100 c
b1000 U"
b1000 v
b0 J"
b10 K"
b10000 Q"
b10000 z
b10000 E"
b10 X"
b10 @"
b10 /"
b10 {
b10 F"
b11100 L
b11100 R
b11100 #"
b11100 I"
b1000 P"
b111 ["
b1001100000001010 5
b1001100000001010 I
b1001100000001010 !"
b1001100000001010 ."
b1001100000001010 ^"
b111 4
b111 G
b111 }
b111 \"
0X
0D
0V
0B
b1110000000010000 +"
b1110000000010000 H"
b111 *"
b111 0"
b111 V"
b1 `
b1101 v"
b1101 9
b1101 i"
b1101 j"
1(
1-
#520000
0(
0-
#540000
b111 ="
b111 u
b10 C"
b10 q
b10 9"
b10 r
b10 ;"
1a
1Q
1U
1A
b10 T
b10 @
b10 s
b10 B"
0]
0M
b10 `
b1110 v"
b1110 9
b1110 j"
b1110 i"
b11100 f
1(
1-
#560000
0(
0-
#580000
bx1x1 ="
bx1x1 u
bx C"
b0xx q
b0xx 9"
bx r
bx ;"
b111 2"
b111 x
b111 6"
1X
1D
1V
1B
b0 T
b0 @
b0 s
b0 B"
0a
0Q
0U
0A
b111 )"
b111 -"
b111 Y"
b10 ,"
b10 P
b10 S
b0 `
b1111 v"
b1111 9
b1111 i"
b1111 j"
1(
1-
#600000
0(
0-
#620000
b0x0x ="
b0xxx q
b0xxx 9"
b0x0x u
b11 t
b11 <"
b11 D"
b1 $"
b1 3"
b1 M"
b10 &"
b10 5"
b10 N"
b1001 U"
b1001 v
0g
b10011 h
b100 n
b10011 m
b10011 c
b1001 P"
b1000 ["
b1111100000001000 5
b1111100000001000 I
b1111100000001000 !"
b1111100000001000 ."
b1111100000001000 ^"
b1000 4
b1000 G
b1000 }
b1000 \"
b10 J"
b1 K"
b1010 Q"
b1010 z
b1010 E"
b1 X"
b1 @"
b1 /"
b1 {
b1 F"
b10011 L
b10011 R
b10011 #"
b10011 I"
0]
0M
0X
0D
0V
0B
b1000 *"
b1000 0"
b1000 V"
b1001100000001010 +"
b1001100000001010 H"
b1 `
b10000 v"
b10000 9
b10000 j"
b10000 i"
1(
1-
#640000
0(
0-
#660000
b1010 U"
b1010 v
1X
1D
b1 W
b1 C
b1 w
b1 T"
0p
b10011 o
b100 `
b10001 v"
b10001 9
b10001 i"
b10001 j"
b10 e
b10011 f
1(
1-
#680000
0(
0-
#700000
b1011 U"
b1011 v
b1011 P"
b1010 ["
b100100010110110 5
b100100010110110 I
b100100010110110 !"
b100100010110110 ."
b100100010110110 ^"
b1010 4
b1010 G
b1010 }
b1010 \"
1V
1B
b0 W
b0 C
b0 w
b0 T"
1X
1D
b1010 *"
b1010 0"
b1010 V"
b0 `
b10010 v"
b10010 9
b10010 j"
b10010 i"
1(
1-
#720000
0(
0-
#740000
bx ="
bx u
b1 t
b1 <"
b1 D"
b110 &"
b110 5"
b110 N"
b110 $"
b110 3"
b110 M"
b10 O"
b10 %"
b10 4"
1]
1M
b1001 h
b10 n
b1001 m
1b
b1001 c
b1100 U"
b1100 v
b110 J"
b110 K"
b10 L"
b10110110 Q"
b10110110 z
b10110110 E"
b10110 X"
b10110 @"
b10110 /"
b10110 {
b10110 F"
b10 ?"
b10 |
b10 G"
b1001 L
b1001 R
b1001 #"
b1001 I"
b1100 P"
b1011 ["
b1101000010110001 5
b1101000010110001 I
b1101000010110001 !"
b1101000010110001 ."
b1101000010110001 ^"
b1011 4
b1011 G
b1011 }
b1011 \"
0X
0D
0V
0B
b100100010110110 +"
b100100010110110 H"
b1011 *"
b1011 0"
b1011 V"
b1 `
b10011 v"
b10011 9
b10011 i"
b10011 j"
1(
1-
#760000
0(
0-
#780000
b110010 ="
b110010 u
b10 C"
b10 q
b10 9"
b10 r
b10 ;"
1a
1Q
1U
1A
b1 T
b1 @
b1 s
b1 B"
0]
0M
b10 `
b10100 v"
b10100 9
b10100 j"
b10100 i"
b110100 7"
b110100 '"
b110100 :"
b110100 R"
b110100 W"
b1001 f
1(
1-
#800000
0(
0-
#820000
bx ="
bx u
bx C"
b0xxx q
b0xxx 9"
bx r
bx ;"
b110010 2"
b110010 x
b110010 6"
1_
1O
1p
b1001 o
b0 T
b0 @
b0 s
b0 B"
0a
0Q
0U
0A
b110010 )"
b110010 -"
b110010 Y"
b100 `
b10101 v"
b10101 9
b10101 i"
b10101 j"
1(
1-
#840000
0(
0-
#860000
1X
1D
1V
1B
0_
0O
b0 `
b10110 v"
b10110 9
b10110 j"
b10110 i"
b110010 *#
1(
1-
#880000
0(
0-
#900000
b0 t
b0 <"
b0 D"
b1 &"
b1 5"
b1 N"
b1 O"
b1 %"
b1 4"
1^
1N
b11010 h
b11010 m
0b
b11010 c
b1101 U"
b1101 v
b1 J"
b10110001 Q"
b10110001 z
b10110001 E"
b11010 L
b11010 R
b11010 #"
b11010 I"
b1101 P"
b1100 ["
b1101000001110111 5
b1101000001110111 I
b1101000001110111 !"
b1101000001110111 ."
b1101000001110111 ^"
b1100 4
b1100 G
b1100 }
b1100 \"
1]
1M
0X
0D
0V
0B
b1101000010110001 +"
b1101000010110001 H"
b1100 *"
b1100 0"
b1100 V"
b1 `
b10111 v"
b10111 9
b10111 i"
b10111 j"
1(
1-
#920000
0(
0-
#940000
b110100 ="
b110100 u
b10 C"
b10 q
b10 9"
b10 r
b10 ;"
1U
1A
b1 T
b1 @
b1 s
b1 B"
0]
0M
0^
0N
b10 `
b11000 v"
b11000 9
b11000 j"
b11000 i"
b110010 7"
b110010 '"
b110010 :"
b110010 R"
b110010 W"
b11010 f
1(
1-
#960000
0(
0-
#980000
bx ="
bx u
1d"
bx C"
b0xxx q
b0xxx 9"
bx r
bx ;"
b110100 ["
b0 5
b0 I
b0 !"
b0 ."
b0 ^"
b110100 4
b110100 G
b110100 }
b110100 \"
b110100 2"
b110100 x
b110100 6"
1\
1K
b1 6
b11 [
b11 H
b11 ~
b11 Z"
b0 T
b0 @
b0 s
b0 B"
0U
0A
b110100 )"
b110100 -"
b110100 Y"
b11 `
b11001 v"
b11001 9
b11001 i"
b11001 j"
1(
1-
#1000000
0(
0-
#1020000
b1100 ["
b1100 4
b1100 G
b1100 }
b1100 \"
0d"
1X
1D
1V
1B
b0 [
b0 H
b0 ~
b0 Z"
0\
0K
b0 6
b1101000001110111 5
b1101000001110111 I
b1101000001110111 !"
b1101000001110111 ."
b1101000001110111 ^"
b0 `
b11010 v"
b11010 9
b11010 j"
b11010 i"
1(
1-
#1040000
0(
0-
#1060000
b111 &"
b111 5"
b111 N"
b111 O"
b111 %"
b111 4"
b1110 U"
b1110 v
b111 J"
b1 L"
b1110111 Q"
b1110111 z
b1110111 E"
b1110 X"
b1110 @"
b1110 /"
b1110 {
b1110 F"
b1 ?"
b1 |
b1 G"
b1110 P"
b1101 ["
b100000000000001 5
b100000000000001 I
b100000000000001 !"
b100000000000001 ."
b100000000000001 ^"
b1101 4
b1101 G
b1101 }
b1101 \"
1^
1N
1]
1M
0X
0D
0V
0B
b1101000001110111 +"
b1101000001110111 H"
b1101 *"
b1101 0"
b1101 V"
b1 `
b11011 v"
b11011 9
b11011 i"
b11011 j"
1(
1-
#1080000
0(
0-
#1100000
1U
1A
b1 T
b1 @
b1 s
b1 B"
0]
0M
0^
0N
b10 `
b110011 ="
b110011 u
b100 .
b100 J
b100 ""
b100 ]"
b1 C"
b10 q
b10 9"
b1 r
b1 ;"
b11100 v"
b11100 9
b11100 j"
1g"
1*
b0 i"
b100 8"
b100 ("
b100 >"
1(
1-
#1120000
0(
0-
#1140000
b110110 ="
b110110 u
1d"
b100 C"
b100 r
b100 ;"
b110011 ["
b0 5
b0 I
b0 !"
b0 ."
b0 ^"
b110011 4
b110011 G
b110011 }
b110011 \"
b110011 2"
b110011 x
b110011 6"
1\
1K
b1 6
b11 [
b11 H
b11 ~
b11 Z"
b0 T
b0 @
b0 s
b0 B"
0U
0A
b110011 )"
b110011 -"
b110011 Y"
b11 `
b11101 v"
b11101 9
b1 i"
0g"
0*
b11101 j"
1(
1-
#1160000
0(
0-
#1180000
b1101 ["
b1101 4
b1101 G
b1101 }
b1101 \"
0d"
1X
1D
1V
1B
b0 [
b0 H
b0 ~
b0 Z"
0\
0K
b0 6
b100000000000001 5
b100000000000001 I
b100000000000001 !"
b100000000000001 ."
b100000000000001 ^"
b0 `
b11110 v"
b11110 9
b11110 j"
b10 i"
1(
1-
#1200000
0(
0-
#1220000
b1 &"
b1 5"
b1 N"
b0 $"
b0 3"
b0 M"
b0 O"
b0 %"
b0 4"
b1000 h
b1000 m
1b
b1000 c
b1111 U"
b1111 v
b1 J"
b0 K"
b0 L"
b1 Q"
b1 z
b1 E"
b0 X"
b0 @"
b0 /"
b0 {
b0 F"
b0 ?"
b0 |
b0 G"
b1000 L
b1000 R
b1000 #"
b1000 I"
b1111 P"
b1110 ["
b100100001000000 5
b100100001000000 I
b100100001000000 !"
b100100001000000 ."
b100100001000000 ^"
b1110 4
b1110 G
b1110 }
b1110 \"
0^
0N
1]
1M
0X
0D
0V
0B
b100000000000001 +"
b100000000000001 H"
b1110 *"
b1110 0"
b1110 V"
b1 `
b11111 v"
b11111 9
b11 i"
b11111 j"
1(
1-
#1240000
0(
0-
#1260000
b0 C"
b0 r
b0 ;"
1a
1Q
1U
1A
b1 T
b1 @
b1 s
b1 B"
0]
0M
b10 `
b101 ="
b101 u
b100000 v"
b100000 9
b100000 j"
b100 i"
b101 7"
b101 '"
b101 :"
b101 R"
b101 W"
b1000 f
1(
1-
#1280000
0(
0-
#1300000
b1001 ="
b1001 u
b100 C"
b100 r
b100 ;"
b101 2"
b101 x
b101 6"
1_
1O
b1000 o
b0 T
b0 @
b0 s
b0 B"
0a
0Q
0U
0A
b101 )"
b101 -"
b101 Y"
b100 `
b100001 v"
b100001 9
b101 i"
b100001 j"
1(
1-
#1320000
0(
0-
#1340000
1X
1D
1V
1B
0_
0O
b0 `
b100010 v"
b100010 9
b100010 j"
b110 i"
b101 %#
1(
1-
#1360000
0(
0-
